{'model': 'LSTM', 'text_min_freq': 0, 'lr': 0.001, 'hidden_size': 50, 'fc_transfer': 'relu', 'gradient_clip': 2.5e-08, 'metrics': (0.5091743119266054, 0.5091743119266054, 1.0, 0.6747720364741641)}
{'model': 'LSTM', 'text_min_freq': 0, 'lr': 0.001, 'hidden_size': 50, 'fc_transfer': 'relu', 'gradient_clip': 0.25, 'metrics': (0.7912844036697247, 0.758893280632411, 0.8648648648648649, 0.8084210526315789)}
{'model': 'LSTM', 'text_min_freq': 0, 'lr': 0.001, 'hidden_size': 50, 'fc_transfer': 'tanh', 'gradient_clip': 2.5e-08, 'metrics': (0.5091743119266054, 0.5091743119266054, 1.0, 0.6747720364741641)}
{'model': 'LSTM', 'text_min_freq': 0, 'lr': 0.001, 'hidden_size': 50, 'fc_transfer': 'tanh', 'gradient_clip': 0.25, 'metrics': (0.7786697247706422, 0.7390476190476191, 0.8738738738738738, 0.8008255933952527)}
{'model': 'LSTM', 'text_min_freq': 0, 'lr': 0.001, 'hidden_size': 50, 'fc_transfer': 'sigmoid', 'gradient_clip': 2.5e-08, 'metrics': (0.49770642201834864, 0.5035971223021583, 0.9459459459459459, 0.6572769953051643)}
{'model': 'LSTM', 'text_min_freq': 0, 'lr': 0.001, 'hidden_size': 50, 'fc_transfer': 'sigmoid', 'gradient_clip': 0.25, 'metrics': (0.7511467889908257, 0.6894824707846411, 0.9301801801801802, 0.7919463087248323)}
{'model': 'LSTM', 'text_min_freq': 0, 'lr': 0.001, 'hidden_size': 150, 'fc_transfer': 'relu', 'gradient_clip': 2.5e-08, 'metrics': (0.5091743119266054, 0.5091743119266054, 1.0, 0.6747720364741641)}
{'model': 'LSTM', 'text_min_freq': 0, 'lr': 0.001, 'hidden_size': 150, 'fc_transfer': 'relu', 'gradient_clip': 0.25, 'metrics': (0.7740825688073395, 0.7185840707964601, 0.9144144144144144, 0.8047571853320119)}
{'model': 'LSTM', 'text_min_freq': 0, 'lr': 0.001, 'hidden_size': 150, 'fc_transfer': 'tanh', 'gradient_clip': 2.5e-08, 'metrics': (0.5091743119266054, 0.5091743119266054, 1.0, 0.6747720364741641)}
{'model': 'LSTM', 'text_min_freq': 0, 'lr': 0.001, 'hidden_size': 150, 'fc_transfer': 'tanh', 'gradient_clip': 0.25, 'metrics': (0.7603211009174312, 0.7001703577512777, 0.9256756756756757, 0.7972841901066925)}
{'model': 'LSTM', 'text_min_freq': 0, 'lr': 0.001, 'hidden_size': 150, 'fc_transfer': 'sigmoid', 'gradient_clip': 2.5e-08, 'metrics': (0.5091743119266054, 0.5091743119266054, 1.0, 0.6747720364741641)}
{'model': 'LSTM', 'text_min_freq': 0, 'lr': 0.001, 'hidden_size': 150, 'fc_transfer': 'sigmoid', 'gradient_clip': 0.25, 'metrics': (0.7511467889908257, 0.7001763668430335, 0.8941441441441441, 0.7853610286844708)}
{'model': 'LSTM', 'text_min_freq': 0, 'lr': 0.001, 'hidden_size': 300, 'fc_transfer': 'relu', 'gradient_clip': 2.5e-08, 'metrics': (0.5091743119266054, 0.5091743119266054, 1.0, 0.6747720364741641)}
{'model': 'LSTM', 'text_min_freq': 0, 'lr': 0.001, 'hidden_size': 300, 'fc_transfer': 'relu', 'gradient_clip': 0.25, 'metrics': (0.5091743119266054, 0.5091743119266054, 1.0, 0.6747720364741641)}
{'model': 'LSTM', 'text_min_freq': 0, 'lr': 0.001, 'hidden_size': 300, 'fc_transfer': 'tanh', 'gradient_clip': 2.5e-08, 'metrics': (0.5091743119266054, 0.5091743119266054, 1.0, 0.6747720364741641)}
{'model': 'LSTM', 'text_min_freq': 0, 'lr': 0.001, 'hidden_size': 300, 'fc_transfer': 'tanh', 'gradient_clip': 0.25, 'metrics': (0.5091743119266054, 0.5091743119266054, 1.0, 0.6747720364741641)}
{'model': 'LSTM', 'text_min_freq': 0, 'lr': 0.001, 'hidden_size': 300, 'fc_transfer': 'sigmoid', 'gradient_clip': 2.5e-08, 'metrics': (0.4908256880733945, nan, 0.0, nan)}
{'model': 'LSTM', 'text_min_freq': 0, 'lr': 0.001, 'hidden_size': 300, 'fc_transfer': 'sigmoid', 'gradient_clip': 0.25, 'metrics': (0.5091743119266054, 0.5091743119266054, 1.0, 0.6747720364741641)}
{'model': 'LSTM', 'text_min_freq': 0, 'lr': 0.0001, 'hidden_size': 50, 'fc_transfer': 'relu', 'gradient_clip': 2.5e-08, 'metrics': (0.5091743119266054, 0.5091743119266054, 1.0, 0.6747720364741641)}
{'model': 'LSTM', 'text_min_freq': 0, 'lr': 0.0001, 'hidden_size': 50, 'fc_transfer': 'relu', 'gradient_clip': 0.25, 'metrics': (0.7408256880733946, 0.6919014084507042, 0.8851351351351351, 0.7766798418972333)}
{'model': 'LSTM', 'text_min_freq': 0, 'lr': 0.0001, 'hidden_size': 50, 'fc_transfer': 'tanh', 'gradient_clip': 2.5e-08, 'metrics': (0.5091743119266054, 0.5091743119266054, 1.0, 0.6747720364741641)}
{'model': 'LSTM', 'text_min_freq': 0, 'lr': 0.0001, 'hidden_size': 50, 'fc_transfer': 'tanh', 'gradient_clip': 0.25, 'metrics': (0.7580275229357798, 0.7297830374753451, 0.8333333333333334, 0.7781282860147215)}
{'model': 'LSTM', 'text_min_freq': 0, 'lr': 0.0001, 'hidden_size': 50, 'fc_transfer': 'sigmoid', 'gradient_clip': 2.5e-08, 'metrics': (0.5091743119266054, 0.5091743119266054, 1.0, 0.6747720364741641)}
{'model': 'LSTM', 'text_min_freq': 0, 'lr': 0.0001, 'hidden_size': 50, 'fc_transfer': 'sigmoid', 'gradient_clip': 0.25, 'metrics': (0.7626146788990825, 0.7463617463617463, 0.8085585585585585, 0.7762162162162163)}
{'model': 'LSTM', 'text_min_freq': 0, 'lr': 0.0001, 'hidden_size': 150, 'fc_transfer': 'relu', 'gradient_clip': 2.5e-08, 'metrics': (0.5091743119266054, 0.5091743119266054, 1.0, 0.6747720364741641)}
{'model': 'LSTM', 'text_min_freq': 0, 'lr': 0.0001, 'hidden_size': 150, 'fc_transfer': 'relu', 'gradient_clip': 0.25, 'metrics': (0.7970183486238532, 0.7696969696969697, 0.8581081081081081, 0.8115015974440893)}
{'model': 'LSTM', 'text_min_freq': 0, 'lr': 0.0001, 'hidden_size': 150, 'fc_transfer': 'tanh', 'gradient_clip': 2.5e-08, 'metrics': (0.5091743119266054, 0.5091743119266054, 1.0, 0.6747720364741641)}
{'model': 'LSTM', 'text_min_freq': 0, 'lr': 0.0001, 'hidden_size': 150, 'fc_transfer': 'tanh', 'gradient_clip': 0.25, 'metrics': (0.7981651376146789, 0.768, 0.8648648648648649, 0.8135593220338984)}
{'model': 'LSTM', 'text_min_freq': 0, 'lr': 0.0001, 'hidden_size': 150, 'fc_transfer': 'sigmoid', 'gradient_clip': 2.5e-08, 'metrics': (0.5103211009174312, 0.5097588978185993, 1.0, 0.6752851711026616)}
{'model': 'LSTM', 'text_min_freq': 0, 'lr': 0.0001, 'hidden_size': 150, 'fc_transfer': 'sigmoid', 'gradient_clip': 0.25, 'metrics': (0.8004587155963303, 0.8245192307692307, 0.7725225225225225, 0.797674418604651)}
{'model': 'LSTM', 'text_min_freq': 0, 'lr': 0.0001, 'hidden_size': 300, 'fc_transfer': 'relu', 'gradient_clip': 2.5e-08, 'metrics': (0.5091743119266054, 0.5091743119266054, 1.0, 0.6747720364741641)}
{'model': 'LSTM', 'text_min_freq': 0, 'lr': 0.0001, 'hidden_size': 300, 'fc_transfer': 'relu', 'gradient_clip': 0.25, 'metrics': (0.7660550458715596, 0.7702702702702703, 0.7702702702702703, 0.7702702702702703)}
{'model': 'LSTM', 'text_min_freq': 0, 'lr': 0.0001, 'hidden_size': 300, 'fc_transfer': 'tanh', 'gradient_clip': 2.5e-08, 'metrics': (0.5091743119266054, 0.5091743119266054, 1.0, 0.6747720364741641)}
{'model': 'LSTM', 'text_min_freq': 0, 'lr': 0.0001, 'hidden_size': 300, 'fc_transfer': 'tanh', 'gradient_clip': 0.25, 'metrics': (0.7454128440366973, 0.7341772151898734, 0.7837837837837838, 0.7581699346405228)}
{'model': 'LSTM', 'text_min_freq': 0, 'lr': 0.0001, 'hidden_size': 300, 'fc_transfer': 'sigmoid', 'gradient_clip': 2.5e-08, 'metrics': (0.5034403669724771, 0.5065243179122183, 0.9617117117117117, 0.6635586635586636)}
{'model': 'LSTM', 'text_min_freq': 0, 'lr': 0.0001, 'hidden_size': 300, 'fc_transfer': 'sigmoid', 'gradient_clip': 0.25, 'metrics': (0.7465596330275229, 0.7483296213808464, 0.7567567567567568, 0.7525195968645016)}
{'model': 'LSTM', 'text_min_freq': 0, 'lr': 1e-05, 'hidden_size': 50, 'fc_transfer': 'relu', 'gradient_clip': 2.5e-08, 'metrics': (0.5091743119266054, 0.5091743119266054, 1.0, 0.6747720364741641)}
{'model': 'LSTM', 'text_min_freq': 0, 'lr': 1e-05, 'hidden_size': 50, 'fc_transfer': 'relu', 'gradient_clip': 0.25, 'metrics': (0.5091743119266054, 0.5091743119266054, 1.0, 0.6747720364741641)}
{'model': 'LSTM', 'text_min_freq': 0, 'lr': 1e-05, 'hidden_size': 50, 'fc_transfer': 'tanh', 'gradient_clip': 2.5e-08, 'metrics': (0.5091743119266054, 0.5091743119266054, 1.0, 0.6747720364741641)}
{'model': 'LSTM', 'text_min_freq': 0, 'lr': 1e-05, 'hidden_size': 50, 'fc_transfer': 'tanh', 'gradient_clip': 0.25, 'metrics': (0.5091743119266054, 0.5091743119266054, 1.0, 0.6747720364741641)}
{'model': 'LSTM', 'text_min_freq': 0, 'lr': 1e-05, 'hidden_size': 50, 'fc_transfer': 'sigmoid', 'gradient_clip': 2.5e-08, 'metrics': (0.5091743119266054, 0.5091743119266054, 1.0, 0.6747720364741641)}
{'model': 'LSTM', 'text_min_freq': 0, 'lr': 1e-05, 'hidden_size': 50, 'fc_transfer': 'sigmoid', 'gradient_clip': 0.25, 'metrics': (0.5091743119266054, 0.5091743119266054, 1.0, 0.6747720364741641)}
{'model': 'LSTM', 'text_min_freq': 0, 'lr': 1e-05, 'hidden_size': 150, 'fc_transfer': 'relu', 'gradient_clip': 2.5e-08, 'metrics': (0.5091743119266054, 0.5091743119266054, 1.0, 0.6747720364741641)}
{'model': 'LSTM', 'text_min_freq': 0, 'lr': 1e-05, 'hidden_size': 150, 'fc_transfer': 'relu', 'gradient_clip': 0.25, 'metrics': (0.5091743119266054, 0.5091743119266054, 1.0, 0.6747720364741641)}
{'model': 'LSTM', 'text_min_freq': 0, 'lr': 1e-05, 'hidden_size': 150, 'fc_transfer': 'tanh', 'gradient_clip': 2.5e-08, 'metrics': (0.5091743119266054, 0.5091743119266054, 1.0, 0.6747720364741641)}
{'model': 'LSTM', 'text_min_freq': 0, 'lr': 1e-05, 'hidden_size': 150, 'fc_transfer': 'tanh', 'gradient_clip': 0.25, 'metrics': (0.5091743119266054, 0.5091743119266054, 1.0, 0.6747720364741641)}
{'model': 'LSTM', 'text_min_freq': 0, 'lr': 1e-05, 'hidden_size': 150, 'fc_transfer': 'sigmoid', 'gradient_clip': 2.5e-08, 'metrics': (0.4908256880733945, nan, 0.0, nan)}
{'model': 'LSTM', 'text_min_freq': 0, 'lr': 1e-05, 'hidden_size': 150, 'fc_transfer': 'sigmoid', 'gradient_clip': 0.25, 'metrics': (0.5435779816513762, 0.528395061728395, 0.963963963963964, 0.6826156299840511)}
{'model': 'LSTM', 'text_min_freq': 0, 'lr': 1e-05, 'hidden_size': 300, 'fc_transfer': 'relu', 'gradient_clip': 2.5e-08, 'metrics': (0.5091743119266054, 0.5091743119266054, 1.0, 0.6747720364741641)}
{'model': 'LSTM', 'text_min_freq': 0, 'lr': 1e-05, 'hidden_size': 300, 'fc_transfer': 'relu', 'gradient_clip': 0.25, 'metrics': (0.7087155963302753, 0.6938775510204082, 0.7657657657657657, 0.7280513918629549)}
{'model': 'LSTM', 'text_min_freq': 0, 'lr': 1e-05, 'hidden_size': 300, 'fc_transfer': 'tanh', 'gradient_clip': 2.5e-08, 'metrics': (0.5091743119266054, 0.5091743119266054, 1.0, 0.6747720364741641)}
{'model': 'LSTM', 'text_min_freq': 0, 'lr': 1e-05, 'hidden_size': 300, 'fc_transfer': 'tanh', 'gradient_clip': 0.25, 'metrics': (0.7155963302752294, 0.69140625, 0.7972972972972973, 0.7405857740585773)}
{'model': 'LSTM', 'text_min_freq': 0, 'lr': 1e-05, 'hidden_size': 300, 'fc_transfer': 'sigmoid', 'gradient_clip': 2.5e-08, 'metrics': (0.5091743119266054, 0.5091743119266054, 1.0, 0.6747720364741641)}
{'model': 'LSTM', 'text_min_freq': 0, 'lr': 1e-05, 'hidden_size': 300, 'fc_transfer': 'sigmoid', 'gradient_clip': 0.25, 'metrics': (0.7190366972477065, 0.6792792792792792, 0.8490990990990991, 0.7547547547547546)}
{'model': 'LSTM', 'text_min_freq': 10, 'lr': 0.001, 'hidden_size': 50, 'fc_transfer': 'relu', 'gradient_clip': 2.5e-08, 'metrics': (0.5091743119266054, 0.5091743119266054, 1.0, 0.6747720364741641)}
{'model': 'LSTM', 'text_min_freq': 10, 'lr': 0.001, 'hidden_size': 50, 'fc_transfer': 'relu', 'gradient_clip': 0.25, 'metrics': (0.7798165137614679, 0.7625, 0.8243243243243243, 0.7922077922077922)}
{'model': 'LSTM', 'text_min_freq': 10, 'lr': 0.001, 'hidden_size': 50, 'fc_transfer': 'tanh', 'gradient_clip': 2.5e-08, 'metrics': (0.5091743119266054, 0.5091743119266054, 1.0, 0.6747720364741641)}
{'model': 'LSTM', 'text_min_freq': 10, 'lr': 0.001, 'hidden_size': 50, 'fc_transfer': 'tanh', 'gradient_clip': 0.25, 'metrics': (0.7763761467889908, 0.7535641547861507, 0.8333333333333334, 0.7914438502673797)}
{'model': 'LSTM', 'text_min_freq': 10, 'lr': 0.001, 'hidden_size': 50, 'fc_transfer': 'sigmoid', 'gradient_clip': 2.5e-08, 'metrics': (0.5091743119266054, 0.5091743119266054, 1.0, 0.6747720364741641)}
{'model': 'LSTM', 'text_min_freq': 10, 'lr': 0.001, 'hidden_size': 50, 'fc_transfer': 'sigmoid', 'gradient_clip': 0.25, 'metrics': (0.768348623853211, 0.7552742616033755, 0.8063063063063063, 0.7799564270152506)}
{'model': 'LSTM', 'text_min_freq': 10, 'lr': 0.001, 'hidden_size': 150, 'fc_transfer': 'relu', 'gradient_clip': 2.5e-08, 'metrics': (0.5091743119266054, 0.5091743119266054, 1.0, 0.6747720364741641)}
{'model': 'LSTM', 'text_min_freq': 10, 'lr': 0.001, 'hidden_size': 150, 'fc_transfer': 'relu', 'gradient_clip': 0.25, 'metrics': (0.7775229357798165, 0.817258883248731, 0.7252252252252253, 0.7684964200477327)}
{'model': 'LSTM', 'text_min_freq': 10, 'lr': 0.001, 'hidden_size': 150, 'fc_transfer': 'tanh', 'gradient_clip': 2.5e-08, 'metrics': (0.5091743119266054, 0.5091743119266054, 1.0, 0.6747720364741641)}
{'model': 'LSTM', 'text_min_freq': 10, 'lr': 0.001, 'hidden_size': 150, 'fc_transfer': 'tanh', 'gradient_clip': 0.25, 'metrics': (0.5137614678899083, 0.5119047619047619, 0.9684684684684685, 0.6697819314641744)}
{'model': 'LSTM', 'text_min_freq': 10, 'lr': 0.001, 'hidden_size': 150, 'fc_transfer': 'sigmoid', 'gradient_clip': 2.5e-08, 'metrics': (0.5091743119266054, 0.5091743119266054, 1.0, 0.6747720364741641)}
{'model': 'LSTM', 'text_min_freq': 10, 'lr': 0.001, 'hidden_size': 150, 'fc_transfer': 'sigmoid', 'gradient_clip': 0.25, 'metrics': (0.5091743119266054, 0.5091743119266054, 1.0, 0.6747720364741641)}
{'model': 'LSTM', 'text_min_freq': 10, 'lr': 0.001, 'hidden_size': 300, 'fc_transfer': 'relu', 'gradient_clip': 2.5e-08, 'metrics': (0.5091743119266054, 0.5091743119266054, 1.0, 0.6747720364741641)}
{'model': 'LSTM', 'text_min_freq': 10, 'lr': 0.001, 'hidden_size': 300, 'fc_transfer': 'relu', 'gradient_clip': 0.25, 'metrics': (0.5091743119266054, 0.5091743119266054, 1.0, 0.6747720364741641)}
{'model': 'LSTM', 'text_min_freq': 10, 'lr': 0.001, 'hidden_size': 300, 'fc_transfer': 'tanh', 'gradient_clip': 2.5e-08, 'metrics': (0.5091743119266054, 0.5091743119266054, 1.0, 0.6747720364741641)}
{'model': 'LSTM', 'text_min_freq': 10, 'lr': 0.001, 'hidden_size': 300, 'fc_transfer': 'tanh', 'gradient_clip': 0.25, 'metrics': (0.5091743119266054, 0.5091743119266054, 1.0, 0.6747720364741641)}
{'model': 'LSTM', 'text_min_freq': 10, 'lr': 0.001, 'hidden_size': 300, 'fc_transfer': 'sigmoid', 'gradient_clip': 2.5e-08, 'metrics': (0.5057339449541285, 0.5076023391812865, 0.9774774774774775, 0.6682063125481139)}
{'model': 'LSTM', 'text_min_freq': 10, 'lr': 0.001, 'hidden_size': 300, 'fc_transfer': 'sigmoid', 'gradient_clip': 0.25, 'metrics': (0.5091743119266054, 0.5091743119266054, 1.0, 0.6747720364741641)}
{'model': 'LSTM', 'text_min_freq': 10, 'lr': 0.0001, 'hidden_size': 50, 'fc_transfer': 'relu', 'gradient_clip': 2.5e-08, 'metrics': (0.5091743119266054, 0.5091743119266054, 1.0, 0.6747720364741641)}
{'model': 'LSTM', 'text_min_freq': 10, 'lr': 0.0001, 'hidden_size': 50, 'fc_transfer': 'relu', 'gradient_clip': 0.25, 'metrics': (0.7259174311926605, 0.6990291262135923, 0.8108108108108109, 0.7507820646506779)}
{'model': 'LSTM', 'text_min_freq': 10, 'lr': 0.0001, 'hidden_size': 50, 'fc_transfer': 'tanh', 'gradient_clip': 2.5e-08, 'metrics': (0.5091743119266054, 0.5091743119266054, 1.0, 0.6747720364741641)}
{'model': 'LSTM', 'text_min_freq': 10, 'lr': 0.0001, 'hidden_size': 50, 'fc_transfer': 'tanh', 'gradient_clip': 0.25, 'metrics': (0.7350917431192661, 0.7134268537074149, 0.8018018018018018, 0.7550371155885472)}
{'model': 'LSTM', 'text_min_freq': 10, 'lr': 0.0001, 'hidden_size': 50, 'fc_transfer': 'sigmoid', 'gradient_clip': 2.5e-08, 'metrics': (0.5091743119266054, 0.5092165898617511, 0.9954954954954955, 0.673780487804878)}
{'model': 'LSTM', 'text_min_freq': 10, 'lr': 0.0001, 'hidden_size': 50, 'fc_transfer': 'sigmoid', 'gradient_clip': 0.25, 'metrics': (0.7522935779816514, 0.7556053811659192, 0.759009009009009, 0.7573033707865168)}
{'model': 'LSTM', 'text_min_freq': 10, 'lr': 0.0001, 'hidden_size': 150, 'fc_transfer': 'relu', 'gradient_clip': 2.5e-08, 'metrics': (0.5091743119266054, 0.5091743119266054, 1.0, 0.6747720364741641)}
{'model': 'LSTM', 'text_min_freq': 10, 'lr': 0.0001, 'hidden_size': 150, 'fc_transfer': 'relu', 'gradient_clip': 0.25, 'metrics': (0.7614678899082569, 0.7398373983739838, 0.8198198198198198, 0.7777777777777778)}
{'model': 'LSTM', 'text_min_freq': 10, 'lr': 0.0001, 'hidden_size': 150, 'fc_transfer': 'tanh', 'gradient_clip': 2.5e-08, 'metrics': (0.5091743119266054, 0.5091743119266054, 1.0, 0.6747720364741641)}
{'model': 'LSTM', 'text_min_freq': 10, 'lr': 0.0001, 'hidden_size': 150, 'fc_transfer': 'tanh', 'gradient_clip': 0.25, 'metrics': (0.7649082568807339, 0.751578947368421, 0.8040540540540541, 0.7769314472252448)}
{'model': 'LSTM', 'text_min_freq': 10, 'lr': 0.0001, 'hidden_size': 150, 'fc_transfer': 'sigmoid', 'gradient_clip': 2.5e-08, 'metrics': (0.5091743119266054, 0.5091743119266054, 1.0, 0.6747720364741641)}
{'model': 'LSTM', 'text_min_freq': 10, 'lr': 0.0001, 'hidden_size': 150, 'fc_transfer': 'sigmoid', 'gradient_clip': 0.25, 'metrics': (0.7614678899082569, 0.7478991596638656, 0.8018018018018018, 0.7739130434782608)}
{'model': 'LSTM', 'text_min_freq': 10, 'lr': 0.0001, 'hidden_size': 300, 'fc_transfer': 'relu', 'gradient_clip': 2.5e-08, 'metrics': (0.5091743119266054, 0.5091743119266054, 1.0, 0.6747720364741641)}
{'model': 'LSTM', 'text_min_freq': 10, 'lr': 0.0001, 'hidden_size': 300, 'fc_transfer': 'relu', 'gradient_clip': 0.25, 'metrics': (0.7672018348623854, 0.7671840354767184, 0.7792792792792793, 0.7731843575418994)}
{'model': 'LSTM', 'text_min_freq': 10, 'lr': 0.0001, 'hidden_size': 300, 'fc_transfer': 'tanh', 'gradient_clip': 2.5e-08, 'metrics': (0.5091743119266054, 0.5091743119266054, 1.0, 0.6747720364741641)}
{'model': 'LSTM', 'text_min_freq': 10, 'lr': 0.0001, 'hidden_size': 300, 'fc_transfer': 'tanh', 'gradient_clip': 0.25, 'metrics': (0.7614678899082569, 0.7706422018348624, 0.7567567567567568, 0.7636363636363637)}
{'model': 'LSTM', 'text_min_freq': 10, 'lr': 0.0001, 'hidden_size': 300, 'fc_transfer': 'sigmoid', 'gradient_clip': 2.5e-08, 'metrics': (0.5103211009174312, 0.5098722415795587, 0.9887387387387387, 0.6727969348659004)}
{'model': 'LSTM', 'text_min_freq': 10, 'lr': 0.0001, 'hidden_size': 300, 'fc_transfer': 'sigmoid', 'gradient_clip': 0.25, 'metrics': (0.7568807339449541, 0.777511961722488, 0.7319819819819819, 0.754060324825986)}
{'model': 'LSTM', 'text_min_freq': 10, 'lr': 1e-05, 'hidden_size': 50, 'fc_transfer': 'relu', 'gradient_clip': 2.5e-08, 'metrics': (0.4908256880733945, nan, 0.0, nan)}
{'model': 'LSTM', 'text_min_freq': 10, 'lr': 1e-05, 'hidden_size': 50, 'fc_transfer': 'relu', 'gradient_clip': 0.25, 'metrics': (0.5091743119266054, 0.5091743119266054, 1.0, 0.6747720364741641)}
{'model': 'LSTM', 'text_min_freq': 10, 'lr': 1e-05, 'hidden_size': 50, 'fc_transfer': 'tanh', 'gradient_clip': 2.5e-08, 'metrics': (0.4908256880733945, nan, 0.0, nan)}
{'model': 'LSTM', 'text_min_freq': 10, 'lr': 1e-05, 'hidden_size': 50, 'fc_transfer': 'tanh', 'gradient_clip': 0.25, 'metrics': (0.5091743119266054, 0.5091743119266054, 1.0, 0.6747720364741641)}
{'model': 'LSTM', 'text_min_freq': 10, 'lr': 1e-05, 'hidden_size': 50, 'fc_transfer': 'sigmoid', 'gradient_clip': 2.5e-08, 'metrics': (0.5091743119266054, 0.5091743119266054, 1.0, 0.6747720364741641)}
{'model': 'LSTM', 'text_min_freq': 10, 'lr': 1e-05, 'hidden_size': 50, 'fc_transfer': 'sigmoid', 'gradient_clip': 0.25, 'metrics': (0.5091743119266054, 0.5091743119266054, 1.0, 0.6747720364741641)}
{'model': 'LSTM', 'text_min_freq': 10, 'lr': 1e-05, 'hidden_size': 150, 'fc_transfer': 'relu', 'gradient_clip': 2.5e-08, 'metrics': (0.4908256880733945, nan, 0.0, nan)}
{'model': 'LSTM', 'text_min_freq': 10, 'lr': 1e-05, 'hidden_size': 150, 'fc_transfer': 'relu', 'gradient_clip': 0.25, 'metrics': (0.5091743119266054, 0.5091743119266054, 1.0, 0.6747720364741641)}
{'model': 'LSTM', 'text_min_freq': 10, 'lr': 1e-05, 'hidden_size': 150, 'fc_transfer': 'tanh', 'gradient_clip': 2.5e-08, 'metrics': (0.4908256880733945, nan, 0.0, nan)}
{'model': 'LSTM', 'text_min_freq': 10, 'lr': 1e-05, 'hidden_size': 150, 'fc_transfer': 'tanh', 'gradient_clip': 0.25, 'metrics': (0.5091743119266054, 0.5091743119266054, 1.0, 0.6747720364741641)}
{'model': 'LSTM', 'text_min_freq': 10, 'lr': 1e-05, 'hidden_size': 150, 'fc_transfer': 'sigmoid', 'gradient_clip': 2.5e-08, 'metrics': (0.5091743119266054, 0.5091743119266054, 1.0, 0.6747720364741641)}
{'model': 'LSTM', 'text_min_freq': 10, 'lr': 1e-05, 'hidden_size': 150, 'fc_transfer': 'sigmoid', 'gradient_clip': 0.25, 'metrics': (0.5091743119266054, 0.5091743119266054, 1.0, 0.6747720364741641)}
{'model': 'LSTM', 'text_min_freq': 10, 'lr': 1e-05, 'hidden_size': 300, 'fc_transfer': 'relu', 'gradient_clip': 2.5e-08, 'metrics': (0.5068807339449541, 0.5081395348837209, 0.9842342342342343, 0.670245398773006)}
{'model': 'LSTM', 'text_min_freq': 10, 'lr': 1e-05, 'hidden_size': 300, 'fc_transfer': 'relu', 'gradient_clip': 0.25, 'metrics': (0.5068807339449541, 0.5081395348837209, 0.9842342342342343, 0.670245398773006)}
{'model': 'LSTM', 'text_min_freq': 10, 'lr': 1e-05, 'hidden_size': 300, 'fc_transfer': 'tanh', 'gradient_clip': 2.5e-08, 'metrics': (0.4988532110091743, 0.5043478260869565, 0.9144144144144144, 0.6501200960768615)}
{'model': 'LSTM', 'text_min_freq': 10, 'lr': 1e-05, 'hidden_size': 300, 'fc_transfer': 'tanh', 'gradient_clip': 0.25, 'metrics': (0.4954128440366973, 0.5023866348448688, 0.9481981981981982, 0.656786271450858)}
{'model': 'LSTM', 'text_min_freq': 10, 'lr': 1e-05, 'hidden_size': 300, 'fc_transfer': 'sigmoid', 'gradient_clip': 2.5e-08, 'metrics': (0.5091743119266054, 0.5091743119266054, 1.0, 0.6747720364741641)}
{'model': 'LSTM', 'text_min_freq': 10, 'lr': 1e-05, 'hidden_size': 300, 'fc_transfer': 'sigmoid', 'gradient_clip': 0.25, 'metrics': (0.5091743119266054, 0.5091743119266054, 1.0, 0.6747720364741641)}
{'model': 'LSTM', 'text_min_freq': 100, 'lr': 0.001, 'hidden_size': 50, 'fc_transfer': 'relu', 'gradient_clip': 2.5e-08, 'metrics': (0.5091743119266054, 0.5091743119266054, 1.0, 0.6747720364741641)}
{'model': 'LSTM', 'text_min_freq': 100, 'lr': 0.001, 'hidden_size': 50, 'fc_transfer': 'relu', 'gradient_clip': 0.25, 'metrics': (0.658256880733945, 0.689119170984456, 0.5990990990990991, 0.6409638554216867)}
{'model': 'LSTM', 'text_min_freq': 100, 'lr': 0.001, 'hidden_size': 50, 'fc_transfer': 'tanh', 'gradient_clip': 2.5e-08, 'metrics': (0.5091743119266054, 0.5091743119266054, 1.0, 0.6747720364741641)}
{'model': 'LSTM', 'text_min_freq': 100, 'lr': 0.001, 'hidden_size': 50, 'fc_transfer': 'tanh', 'gradient_clip': 0.25, 'metrics': (0.6490825688073395, 0.6938202247191011, 0.5563063063063063, 0.6174999999999999)}
{'model': 'LSTM', 'text_min_freq': 100, 'lr': 0.001, 'hidden_size': 50, 'fc_transfer': 'sigmoid', 'gradient_clip': 2.5e-08, 'metrics': (0.5091743119266054, 0.5091743119266054, 1.0, 0.6747720364741641)}
{'model': 'LSTM', 'text_min_freq': 100, 'lr': 0.001, 'hidden_size': 50, 'fc_transfer': 'sigmoid', 'gradient_clip': 0.25, 'metrics': (0.6261467889908257, 0.6966666666666667, 0.47072072072072074, 0.5618279569892474)}
{'model': 'LSTM', 'text_min_freq': 100, 'lr': 0.001, 'hidden_size': 150, 'fc_transfer': 'relu', 'gradient_clip': 2.5e-08, 'metrics': (0.5091743119266054, 0.5091743119266054, 1.0, 0.6747720364741641)}
{'model': 'LSTM', 'text_min_freq': 100, 'lr': 0.001, 'hidden_size': 150, 'fc_transfer': 'relu', 'gradient_clip': 0.25, 'metrics': (0.5114678899082569, 0.5103448275862069, 1.0, 0.6757990867579908)}
{'model': 'LSTM', 'text_min_freq': 100, 'lr': 0.001, 'hidden_size': 150, 'fc_transfer': 'tanh', 'gradient_clip': 2.5e-08, 'metrics': (0.5091743119266054, 0.5091743119266054, 1.0, 0.6747720364741641)}
{'model': 'LSTM', 'text_min_freq': 100, 'lr': 0.001, 'hidden_size': 150, 'fc_transfer': 'tanh', 'gradient_clip': 0.25, 'metrics': (0.5951834862385321, 0.5752066115702479, 0.7837837837837838, 0.663489037178265)}
{'model': 'LSTM', 'text_min_freq': 100, 'lr': 0.001, 'hidden_size': 150, 'fc_transfer': 'sigmoid', 'gradient_clip': 2.5e-08, 'metrics': (0.5091743119266054, 0.5091743119266054, 1.0, 0.6747720364741641)}
{'model': 'LSTM', 'text_min_freq': 100, 'lr': 0.001, 'hidden_size': 150, 'fc_transfer': 'sigmoid', 'gradient_clip': 0.25, 'metrics': (0.5091743119266054, 0.5091743119266054, 1.0, 0.6747720364741641)}
{'model': 'LSTM', 'text_min_freq': 100, 'lr': 0.001, 'hidden_size': 300, 'fc_transfer': 'relu', 'gradient_clip': 2.5e-08, 'metrics': (0.5091743119266054, 0.5091743119266054, 1.0, 0.6747720364741641)}
{'model': 'LSTM', 'text_min_freq': 100, 'lr': 0.001, 'hidden_size': 300, 'fc_transfer': 'relu', 'gradient_clip': 0.25, 'metrics': (0.5091743119266054, 0.5091743119266054, 1.0, 0.6747720364741641)}
{'model': 'LSTM', 'text_min_freq': 100, 'lr': 0.001, 'hidden_size': 300, 'fc_transfer': 'tanh', 'gradient_clip': 2.5e-08, 'metrics': (0.5091743119266054, 0.5091743119266054, 1.0, 0.6747720364741641)}
{'model': 'LSTM', 'text_min_freq': 100, 'lr': 0.001, 'hidden_size': 300, 'fc_transfer': 'tanh', 'gradient_clip': 0.25, 'metrics': (0.6020642201834863, 0.603411513859275, 0.6373873873873874, 0.619934282584885)}
{'model': 'LSTM', 'text_min_freq': 100, 'lr': 0.001, 'hidden_size': 300, 'fc_transfer': 'sigmoid', 'gradient_clip': 2.5e-08, 'metrics': (0.4908256880733945, nan, 0.0, nan)}
{'model': 'LSTM', 'text_min_freq': 100, 'lr': 0.001, 'hidden_size': 300, 'fc_transfer': 'sigmoid', 'gradient_clip': 0.25, 'metrics': (0.5091743119266054, 0.5091743119266054, 1.0, 0.6747720364741641)}
{'model': 'LSTM', 'text_min_freq': 100, 'lr': 0.0001, 'hidden_size': 50, 'fc_transfer': 'relu', 'gradient_clip': 2.5e-08, 'metrics': (0.5091743119266054, 0.5091743119266054, 1.0, 0.6747720364741641)}
{'model': 'LSTM', 'text_min_freq': 100, 'lr': 0.0001, 'hidden_size': 50, 'fc_transfer': 'relu', 'gradient_clip': 0.25, 'metrics': (0.6479357798165137, 0.6512141280353201, 0.6644144144144144, 0.6577480490523969)}
{'model': 'LSTM', 'text_min_freq': 100, 'lr': 0.0001, 'hidden_size': 50, 'fc_transfer': 'tanh', 'gradient_clip': 2.5e-08, 'metrics': (0.5091743119266054, 0.5091743119266054, 1.0, 0.6747720364741641)}
{'model': 'LSTM', 'text_min_freq': 100, 'lr': 0.0001, 'hidden_size': 50, 'fc_transfer': 'tanh', 'gradient_clip': 0.25, 'metrics': (0.6422018348623854, 0.6170212765957447, 0.7837837837837838, 0.6904761904761905)}
{'model': 'LSTM', 'text_min_freq': 100, 'lr': 0.0001, 'hidden_size': 50, 'fc_transfer': 'sigmoid', 'gradient_clip': 2.5e-08, 'metrics': (0.5091743119266054, 0.5091743119266054, 1.0, 0.6747720364741641)}
{'model': 'LSTM', 'text_min_freq': 100, 'lr': 0.0001, 'hidden_size': 50, 'fc_transfer': 'sigmoid', 'gradient_clip': 0.25, 'metrics': (0.5871559633027523, 0.5558510638297872, 0.9414414414414415, 0.6989966555183946)}
{'model': 'LSTM', 'text_min_freq': 100, 'lr': 0.0001, 'hidden_size': 150, 'fc_transfer': 'relu', 'gradient_clip': 2.5e-08, 'metrics': (0.5091743119266054, 0.5091743119266054, 1.0, 0.6747720364741641)}
{'model': 'LSTM', 'text_min_freq': 100, 'lr': 0.0001, 'hidden_size': 150, 'fc_transfer': 'relu', 'gradient_clip': 0.25, 'metrics': (0.5103211009174312, 0.5097588978185993, 1.0, 0.6752851711026616)}
{'model': 'LSTM', 'text_min_freq': 100, 'lr': 0.0001, 'hidden_size': 150, 'fc_transfer': 'tanh', 'gradient_clip': 2.5e-08, 'metrics': (0.5091743119266054, 0.5091743119266054, 1.0, 0.6747720364741641)}
{'model': 'LSTM', 'text_min_freq': 100, 'lr': 0.0001, 'hidden_size': 150, 'fc_transfer': 'tanh', 'gradient_clip': 0.25, 'metrics': (0.6330275229357798, 0.6103202846975089, 0.7725225225225225, 0.6819085487077534)}
{'model': 'LSTM', 'text_min_freq': 100, 'lr': 0.0001, 'hidden_size': 150, 'fc_transfer': 'sigmoid', 'gradient_clip': 2.5e-08, 'metrics': (0.5091743119266054, 0.5091743119266054, 1.0, 0.6747720364741641)}
{'model': 'LSTM', 'text_min_freq': 100, 'lr': 0.0001, 'hidden_size': 150, 'fc_transfer': 'sigmoid', 'gradient_clip': 0.25, 'metrics': (0.5091743119266054, 0.5091743119266054, 1.0, 0.6747720364741641)}
{'model': 'LSTM', 'text_min_freq': 100, 'lr': 0.0001, 'hidden_size': 300, 'fc_transfer': 'relu', 'gradient_clip': 2.5e-08, 'metrics': (0.5091743119266054, 0.5091743119266054, 1.0, 0.6747720364741641)}
{'model': 'LSTM', 'text_min_freq': 100, 'lr': 0.0001, 'hidden_size': 300, 'fc_transfer': 'relu', 'gradient_clip': 0.25, 'metrics': (0.5229357798165137, 0.5168269230769231, 0.9684684684684685, 0.6739811912225706)}
{'model': 'LSTM', 'text_min_freq': 100, 'lr': 0.0001, 'hidden_size': 300, 'fc_transfer': 'tanh', 'gradient_clip': 2.5e-08, 'metrics': (0.5091743119266054, 0.5091743119266054, 1.0, 0.6747720364741641)}
{'model': 'LSTM', 'text_min_freq': 100, 'lr': 0.0001, 'hidden_size': 300, 'fc_transfer': 'tanh', 'gradient_clip': 0.25, 'metrics': (0.6284403669724771, 0.6470588235294118, 0.5945945945945946, 0.619718309859155)}
{'model': 'LSTM', 'text_min_freq': 100, 'lr': 0.0001, 'hidden_size': 300, 'fc_transfer': 'sigmoid', 'gradient_clip': 2.5e-08, 'metrics': (0.4908256880733945, nan, 0.0, nan)}
{'model': 'LSTM', 'text_min_freq': 100, 'lr': 0.0001, 'hidden_size': 300, 'fc_transfer': 'sigmoid', 'gradient_clip': 0.25, 'metrics': (0.4908256880733945, nan, 0.0, nan)}
{'model': 'LSTM', 'text_min_freq': 100, 'lr': 1e-05, 'hidden_size': 50, 'fc_transfer': 'relu', 'gradient_clip': 2.5e-08, 'metrics': (0.4896788990825688, 0.4827586206896552, 0.03153153153153153, 0.05919661733615222)}
{'model': 'LSTM', 'text_min_freq': 100, 'lr': 1e-05, 'hidden_size': 50, 'fc_transfer': 'relu', 'gradient_clip': 0.25, 'metrics': (0.5091743119266054, 0.5091743119266054, 1.0, 0.6747720364741641)}
{'model': 'LSTM', 'text_min_freq': 100, 'lr': 1e-05, 'hidden_size': 50, 'fc_transfer': 'tanh', 'gradient_clip': 2.5e-08, 'metrics': (0.49311926605504586, 0.55, 0.024774774774774775, 0.04741379310344828)}
{'model': 'LSTM', 'text_min_freq': 100, 'lr': 1e-05, 'hidden_size': 50, 'fc_transfer': 'tanh', 'gradient_clip': 0.25, 'metrics': (0.5091743119266054, 0.5091743119266054, 1.0, 0.6747720364741641)}
{'model': 'LSTM', 'text_min_freq': 100, 'lr': 1e-05, 'hidden_size': 50, 'fc_transfer': 'sigmoid', 'gradient_clip': 2.5e-08, 'metrics': (0.5091743119266054, 0.5091743119266054, 1.0, 0.6747720364741641)}
{'model': 'LSTM', 'text_min_freq': 100, 'lr': 1e-05, 'hidden_size': 50, 'fc_transfer': 'sigmoid', 'gradient_clip': 0.25, 'metrics': (0.5091743119266054, 0.5091743119266054, 1.0, 0.6747720364741641)}
{'model': 'LSTM', 'text_min_freq': 100, 'lr': 1e-05, 'hidden_size': 150, 'fc_transfer': 'relu', 'gradient_clip': 2.5e-08, 'metrics': (0.4919724770642202, 0.5135135135135135, 0.04279279279279279, 0.07900207900207899)}
{'model': 'LSTM', 'text_min_freq': 100, 'lr': 1e-05, 'hidden_size': 150, 'fc_transfer': 'relu', 'gradient_clip': 0.25, 'metrics': (0.5091743119266054, 0.5091743119266054, 1.0, 0.6747720364741641)}
{'model': 'LSTM', 'text_min_freq': 100, 'lr': 1e-05, 'hidden_size': 150, 'fc_transfer': 'tanh', 'gradient_clip': 2.5e-08, 'metrics': (0.4896788990825688, 0.3333333333333333, 0.0022522522522522522, 0.00447427293064877)}
{'model': 'LSTM', 'text_min_freq': 100, 'lr': 1e-05, 'hidden_size': 150, 'fc_transfer': 'tanh', 'gradient_clip': 0.25, 'metrics': (0.5091743119266054, 0.5091743119266054, 1.0, 0.6747720364741641)}
{'model': 'LSTM', 'text_min_freq': 100, 'lr': 1e-05, 'hidden_size': 150, 'fc_transfer': 'sigmoid', 'gradient_clip': 2.5e-08, 'metrics': (0.5091743119266054, 0.5091743119266054, 1.0, 0.6747720364741641)}
{'model': 'LSTM', 'text_min_freq': 100, 'lr': 1e-05, 'hidden_size': 150, 'fc_transfer': 'sigmoid', 'gradient_clip': 0.25, 'metrics': (0.5091743119266054, 0.5091743119266054, 1.0, 0.6747720364741641)}
{'model': 'LSTM', 'text_min_freq': 100, 'lr': 1e-05, 'hidden_size': 300, 'fc_transfer': 'relu', 'gradient_clip': 2.5e-08, 'metrics': (0.5080275229357798, 0.5086107921928817, 0.9977477477477478, 0.673764258555133)}
{'model': 'LSTM', 'text_min_freq': 100, 'lr': 1e-05, 'hidden_size': 300, 'fc_transfer': 'relu', 'gradient_clip': 0.25, 'metrics': (0.5091743119266054, 0.5091743119266054, 1.0, 0.6747720364741641)}
{'model': 'LSTM', 'text_min_freq': 100, 'lr': 1e-05, 'hidden_size': 300, 'fc_transfer': 'tanh', 'gradient_clip': 2.5e-08, 'metrics': (0.5091743119266054, 0.5091743119266054, 1.0, 0.6747720364741641)}
{'model': 'LSTM', 'text_min_freq': 100, 'lr': 1e-05, 'hidden_size': 300, 'fc_transfer': 'tanh', 'gradient_clip': 0.25, 'metrics': (0.5091743119266054, 0.5091743119266054, 1.0, 0.6747720364741641)}
{'model': 'LSTM', 'text_min_freq': 100, 'lr': 1e-05, 'hidden_size': 300, 'fc_transfer': 'sigmoid', 'gradient_clip': 2.5e-08, 'metrics': (0.4908256880733945, nan, 0.0, nan)}
{'model': 'LSTM', 'text_min_freq': 100, 'lr': 1e-05, 'hidden_size': 300, 'fc_transfer': 'sigmoid', 'gradient_clip': 0.25, 'metrics': (0.5091743119266054, 0.5091743119266054, 1.0, 0.6747720364741641)}
