epoch: 1, step: 0/900, batch_loss: 2.4011833667755127
epoch: 1, step: 100/900, batch_loss: 1.6228911876678467
epoch: 1, step: 200/900, batch_loss: 1.6398308277130127
epoch: 1, step: 300/900, batch_loss: 1.3986128568649292
epoch: 1, step: 400/900, batch_loss: 1.5947178602218628
epoch: 1, step: 500/900, batch_loss: 1.4913994073867798
epoch: 1, step: 600/900, batch_loss: 1.1939030885696411
epoch: 1, step: 700/900, batch_loss: 1.3407864570617676
epoch: 1, step: 800/900, batch_loss: 1.4351818561553955

Running evaluation: Train
 Loss: 1.1656079292297363
 Confusion matrix:
[[2592  265   76   52  171   53   61  125  658  433]
 [  58 3758    2   35   51   20   81   46   99  343]
 [ 431  117  916  246 1311  585  349  306  123  111]
 [ 105   99   75 1437  603 1186  510  227   74  163]
 [ 155   66  101  114 3103  235  226  411   50   67]
 [  36   65   65  476  553 2549  217  391   46   87]
 [  28   89   66  188  727  141 3096   60   41   82]
 [  39   47   28  123  660  339   61 3035   31  127]
 [ 273  434   17   38   70   45   65   44 3139  360]
 [  75 1156    5   69   53   35  107  136   65 2840]]
 Accuracy: 0.5881111111111111
 Precisions:
[0.6835443  0.61646982 0.67801628 0.51727862 0.42495207 0.49132614
 0.64864865 0.63480443 0.72561258 0.61565142]
 Recalls:
[0.57779759 0.8364122  0.20378198 0.32083054 0.68529152 0.56833891
 0.68525896 0.67594655 0.69988852 0.6254129 ]

Running evaluation: Validation
 Loss: 1.2268041372299194
 Confusion matrix:
[[272  28   9   8  38   5  15  17  73  49]
 [ 11 412   0   4   7   2   7   3  15  46]
 [ 50  21  91  19 141  68  56  37  10  12]
 [ 11  15  11 148  70 151  56  28   7  24]
 [ 22   8   8  16 312  23  28  40   9   6]
 [  7   5  13  51  66 280  28  53   4   8]
 [  3  14   6  21  92  18 308   6   2  12]
 [  6   7   3  16  66  37   6 346   1  22]
 [ 27  49   1   5   6   4   9   6 360  48]
 [  5 126   0   8   6   9  17  12   8 268]]
 Accuracy: 0.5594
 Precisions:
[0.65700483 0.60145985 0.64084507 0.5        0.3880597  0.46901173
 0.58113208 0.63138686 0.73619632 0.54141414]
 Recalls:
[0.52918288 0.81262327 0.18019802 0.2840691  0.66101695 0.54368932
 0.63900415 0.67843137 0.69902913 0.583878  ]
epoch: 2, step: 0/900, batch_loss: 1.32932448387146
epoch: 2, step: 100/900, batch_loss: 1.081824779510498
epoch: 2, step: 200/900, batch_loss: 1.2813255786895752
epoch: 2, step: 300/900, batch_loss: 1.0890902280807495
epoch: 2, step: 400/900, batch_loss: 1.255468487739563
epoch: 2, step: 500/900, batch_loss: 1.0835866928100586
epoch: 2, step: 600/900, batch_loss: 0.9028009176254272
epoch: 2, step: 700/900, batch_loss: 1.0952401161193848
epoch: 2, step: 800/900, batch_loss: 1.1531567573547363

Running evaluation: Train
 Loss: 0.9621415138244629
 Confusion matrix:
[[2725  119  435   98  172   71   12  132  532  190]
 [  49 3486   14   41   26   23   17   44  227  566]
 [ 123   72 2348  319  664  473  116  225   97   58]
 [  41   69  246 2115  321 1018  154  264   95  156]
 [  52   47  309  254 3057  190   84  445   49   41]
 [   8   45  199  714  310 2756   51  312   21   69]
 [  13  110  221  423  587  218 2639  102   47  158]
 [  14   22   82  138  326  317    9 3502   20   60]
 [ 188  126   66   62   36   78    7   39 3810   73]
 [  73  414   33   66   32   73   12  211  200 3427]]
 Accuracy: 0.6636666666666666
 Precisions:
[0.82927572 0.772949   0.59397926 0.5        0.55270295 0.52827295
 0.8510158  0.66376042 0.7473519  0.71425594]
 Recalls:
[0.60744539 0.77587358 0.52235818 0.47220362 0.67513251 0.61449275
 0.58410801 0.77995546 0.84949833 0.75467959]

Running evaluation: Validation
 Loss: 1.0676772594451904
 Confusion matrix:
[[290  20  51  16  31   4   1  14  67  20]
 [  4 358   2   5   2   7   2  10  34  83]
 [ 19  10 245  30  71  56  23  31  11   9]
 [  5   8  28 215  45 146  19  24   7  24]
 [  3   5  36  28 312  16  12  51   6   3]
 [  0   5  22  93  35 296  10  39   4  11]
 [  1   8  29  38  63  32 283   7   3  18]
 [  0   4  11  18  39  35   2 388   2  11]
 [ 17  14  10  11   3  13   3   6 422  16]
 [  8  52   2   9   4   9   1  28  27 319]]
 Accuracy: 0.6256
 Precisions:
[0.83573487 0.73966942 0.56192661 0.46436285 0.51570248 0.48208469
 0.79494382 0.64882943 0.7238422  0.62062257]
 Recalls:
[0.56420233 0.7061144  0.48514851 0.41266795 0.66101695 0.57475728
 0.58713693 0.76078431 0.81941748 0.69498911]
epoch: 3, step: 0/900, batch_loss: 0.9826194643974304
epoch: 3, step: 100/900, batch_loss: 1.0515666007995605
epoch: 3, step: 200/900, batch_loss: 0.9316731095314026
epoch: 3, step: 300/900, batch_loss: 1.118391752243042
epoch: 3, step: 400/900, batch_loss: 1.0585014820098877
epoch: 3, step: 500/900, batch_loss: 0.8404357433319092
epoch: 3, step: 600/900, batch_loss: 0.8508748412132263
epoch: 3, step: 700/900, batch_loss: 0.9547297954559326
epoch: 3, step: 800/900, batch_loss: 0.8893720507621765

Running evaluation: Train
 Loss: 0.7851529717445374
 Confusion matrix:
[[3710   39  165   84   37   25   50   20  211  145]
 [ 177 3426   29   66   10   19   95    2   98  571]
 [ 343    2 2898  238  246  274  352   67   34   41]
 [ 188    8  266 2529  123  768  432   48   33   84]
 [ 196    5  434  301 2698  223  384  225   19   43]
 [  78    6  249  782  147 2892  178  103   13   37]
 [  42    9  140  196  118   78 3885    7   10   33]
 [ 140    1  155  222  281  332   59 3205    8   87]
 [ 382   63   67   90   18   29   57    9 3654  116]
 [ 196  195   35   90   14   21   79   16   58 3837]]
 Accuracy: 0.7274222222222222
 Precisions:
[0.68048423 0.91262653 0.65299685 0.55002175 0.73076923 0.62046771
 0.69736134 0.86574824 0.88303528 0.76832199]
 Recalls:
[0.82701739 0.76251947 0.64471635 0.56463496 0.59584806 0.64481605
 0.85989376 0.71380846 0.81471572 0.84496807]

Running evaluation: Validation
 Loss: 0.9561237096786499
 Confusion matrix:
[[395   7  29  22   7   4   7   2  25  16]
 [ 26 334   9  11   2   3  14   3  20  85]
 [ 38   1 288  27  35  36  55  13   6   6]
 [ 29   1  33 262  21 106  49  11   2   7]
 [ 22   3  47  34 255  21  53  31   3   3]
 [  5   2  36  97  20 311  19  14   3   8]
 [  5   2  18  27  14  19 392   1   1   3]
 [ 18   2  19  28  37  47   6 333   3  17]
 [ 52   8   7  10   1   4   8   3 393  29]
 [ 24  27   4  12   2   6   9   8  12 355]]
 Accuracy: 0.6636
 Precisions:
[0.64332248 0.8630491  0.5877551  0.49433962 0.64720812 0.55834829
 0.64052288 0.7947494  0.83974359 0.6710775 ]
 Recalls:
[0.76848249 0.65877712 0.57029703 0.50287908 0.54025424 0.6038835
 0.81327801 0.65294118 0.7631068  0.77342048]
epoch: 4, step: 0/900, batch_loss: 0.9567950963973999
epoch: 4, step: 100/900, batch_loss: 1.285752296447754
epoch: 4, step: 200/900, batch_loss: 0.8804699778556824
epoch: 4, step: 300/900, batch_loss: 0.9241963028907776
epoch: 4, step: 400/900, batch_loss: 0.6819228529930115
epoch: 4, step: 500/900, batch_loss: 0.7408561706542969
epoch: 4, step: 600/900, batch_loss: 0.9202548861503601
epoch: 4, step: 700/900, batch_loss: 0.8949632048606873
epoch: 4, step: 800/900, batch_loss: 1.0189013481140137

Running evaluation: Train
 Loss: 0.7395647764205933
 Confusion matrix:
[[3181  114  255   39  399   18   29   76  181  194]
 [  27 3960   31   20   57    9   69   27   51  242]
 [ 111   13 2708  106  919  172  225  203   21   17]
 [  52   24  247 2015  681  784  357  243   26   50]
 [  28    2  110   62 3844   78  108  281    8    7]
 [  18   16  210  384  487 2867  138  339   13   13]
 [  15   23  122   84  535   83 3591   31   10   24]
 [  14    0   54   80  382  104   25 3798    7   26]
 [ 188  112   80   30  132   16   31   25 3749  122]
 [  40  473   34   35  104   24   55   80   50 3646]]
 Accuracy: 0.7413111111111111
 Precisions:
[0.86581383 0.83597213 0.70319398 0.70577933 0.50981432 0.69001203
 0.77592913 0.74426808 0.91083576 0.83989864]
 Recalls:
[0.70909496 0.88137102 0.60244716 0.4498772  0.84893993 0.63924192
 0.79482072 0.84587973 0.83589744 0.80290685]

Running evaluation: Validation
 Loss: 0.9856956005096436
 Confusion matrix:
[[306  20  42  18  64   4   5   5  31  19]
 [  4 406   7   4  10   1   9   2  15  49]
 [ 21   3 257  16 114  17  39  31   3   4]
 [  7   6  37 202  79 106  40  35   2   7]
 [  6   2  13  11 377  10  15  36   2   0]
 [  1   2  30  57  62 290  15  48   3   7]
 [  3   3  13  16  67  14 355   9   0   2]
 [  1   0  15  11  52  19   6 393   1  12]
 [ 29  14   9   9  15   3   8   5 399  24]
 [  5  56   6   3  18   4   7  13   9 338]]
 Accuracy: 0.6646
 Precisions:
[0.79895561 0.79296875 0.5990676  0.58213256 0.43939394 0.61965812
 0.71142285 0.68110919 0.85806452 0.73160173]
 Recalls:
[0.59533074 0.80078895 0.50891089 0.38771593 0.79872881 0.5631068
 0.73651452 0.77058824 0.77475728 0.73638344]
epoch: 5, step: 0/900, batch_loss: 0.8646389245986938
epoch: 5, step: 100/900, batch_loss: 0.7095873951911926
epoch: 5, step: 200/900, batch_loss: 0.5173859596252441
epoch: 5, step: 300/900, batch_loss: 0.6896564960479736
epoch: 5, step: 400/900, batch_loss: 0.7038261890411377
epoch: 5, step: 500/900, batch_loss: 0.43026283383369446
epoch: 5, step: 600/900, batch_loss: 0.608061671257019
epoch: 5, step: 700/900, batch_loss: 0.6628488898277283
epoch: 5, step: 800/900, batch_loss: 0.6855842471122742

Running evaluation: Train
 Loss: 0.5931892991065979
 Confusion matrix:
[[3630   51  234   70   64    5   12   86  234  100]
 [  45 4020   13   33   14    7   24   13   64  260]
 [ 115   14 3474  196  278  104   97  152   37   28]
 [  74   20  258 3131  201  293  138  265   39   60]
 [  53   12  266  178 3382   61   82  468   18    8]
 [  31    7  290  874  212 2560   57  416   22   16]
 [  21   12  241  273  219   39 3639   30   23   21]
 [  24    3   81  112  109   58    9 4062    7   25]
 [ 125   64   49   33   19    5   15   27 4074   74]
 [  92  290   31   73   24    4   11   71   86 3859]]
 Accuracy: 0.7962444444444444
 Precisions:
[0.86223278 0.89472513 0.70366619 0.62959984 0.74789916 0.81632653
 0.8910382  0.72665474 0.88488271 0.86699618]
 Recalls:
[0.80918413 0.89472513 0.77285873 0.69903996 0.74690813 0.57079153
 0.80544489 0.90467706 0.9083612  0.84981282]

Running evaluation: Validation
 Loss: 0.8854027390480042
 Confusion matrix:
[[360  10  52  13  21   0   1  13  30  14]
 [ 11 395   4   9   3   1   5   4  23  52]
 [ 24   4 311  28  45  16  31  32   8   6]
 [ 10   2  39 310  27  61  17  44   5   6]
 [  8   4  39  29 304  10  17  58   2   1]
 [  1   2  42 116  33 242  10  58   5   6]
 [  7   4  31  40  29  10 347  10   2   2]
 [  2   1  13  15  22  17   3 424   2  11]
 [ 26  16   3  12   4   1   2   4 427  20]
 [ 10  35   2  10   4   3   4  17  13 361]]
 Accuracy: 0.6962
 Precisions:
[0.78431373 0.83509514 0.58022388 0.53264605 0.61788618 0.67036011
 0.79405034 0.63855422 0.82591876 0.75365344]
 Recalls:
[0.70038911 0.7790927  0.61584158 0.5950096  0.6440678  0.46990291
 0.71991701 0.83137255 0.82912621 0.78649237]
epoch: 6, step: 0/900, batch_loss: 0.7634432315826416
epoch: 6, step: 100/900, batch_loss: 0.36883535981178284
epoch: 6, step: 200/900, batch_loss: 0.5527250170707703
epoch: 6, step: 300/900, batch_loss: 0.760084867477417
epoch: 6, step: 400/900, batch_loss: 0.5431312322616577
epoch: 6, step: 500/900, batch_loss: 0.5967207551002502
epoch: 6, step: 600/900, batch_loss: 0.6389020681381226
epoch: 6, step: 700/900, batch_loss: 0.37492549419403076
epoch: 6, step: 800/900, batch_loss: 0.4777847230434418

Running evaluation: Train
 Loss: 0.5490431189537048
 Confusion matrix:
[[3989   26   87   31   79   16   47   22   83  106]
 [  52 3928    0   24    5    8   63    2   37  374]
 [ 166   12 2799  143  472  232  546   56   32   37]
 [  86   15   88 2665  249  564  642   70   24   76]
 [  74    4   63  115 3572  107  447  104   19   23]
 [  30   10   68  396  212 3350  265  110   18   26]
 [  19    4   33   49   36   28 4322    6    9   12]
 [  36    5   35  111  257  192   85 3701   10   58]
 [ 276   62   24   26   29    9   38    4 3920   97]
 [  79  110    9   21   13    7   52   13   36 4201]]
 Accuracy: 0.8099333333333333
 Precisions:
[0.8298315  0.94061303 0.87305053 0.74420553 0.72542648 0.74230002
 0.66420778 0.90533268 0.93600764 0.83852295]
 Recalls:
[0.88921088 0.87424883 0.62269188 0.59499888 0.78886926 0.74693423
 0.95661797 0.82427617 0.87402453 0.92512662]

Running evaluation: Validation
 Loss: 0.9372212886810303
 Confusion matrix:
[[396   9  20  11  22   5   9   3  21  18]
 [ 13 384   0   3   4   1  12   2  15  73]
 [ 32   5 237  19  65  35  83  16   6   7]
 [ 19   2  16 240  36  97  81  16   3  11]
 [ 11   4  12  22 320  19  55  23   2   4]
 [  3   3  19  70  31 316  35  23   4  11]
 [  3   3   7  14  14  11 426   2   1   1]
 [  5   2   5  18  42  39  11 370   1  17]
 [ 46  13   4   7   2   3  10   1 404  25]
 [ 17  24   0   7   4   3  11   7   5 381]]
 Accuracy: 0.6948
 Precisions:
[0.7266055  0.85523385 0.740625   0.58394161 0.59259259 0.5973535
 0.58117326 0.79913607 0.87445887 0.69525547]
 Recalls:
[0.77042802 0.75739645 0.46930693 0.46065259 0.6779661  0.61359223
 0.88381743 0.7254902  0.78446602 0.83006536]
epoch: 7, step: 0/900, batch_loss: 0.5573634505271912
epoch: 7, step: 100/900, batch_loss: 0.6213668584823608
epoch: 7, step: 200/900, batch_loss: 0.5569074153900146
epoch: 7, step: 300/900, batch_loss: 0.5868890881538391
epoch: 7, step: 400/900, batch_loss: 0.4724200963973999
epoch: 7, step: 500/900, batch_loss: 0.5734898447990417
epoch: 7, step: 600/900, batch_loss: 0.4859805405139923
epoch: 7, step: 700/900, batch_loss: 0.7932425141334534
epoch: 7, step: 800/900, batch_loss: 0.46108949184417725

Running evaluation: Train
 Loss: 0.4436114728450775
 Confusion matrix:
[[3945   70  242   57   34   24   22   12   36   44]
 [  16 4373   11   18    4    4   10    3    5   49]
 [  53   15 3866  175  129  116   86   39    6   10]
 [  23   18  239 3606   82  315  141   26    5   24]
 [  50    9  365  198 3580   97  113  102    5    9]
 [  12   11  217  651  125 3327   50   85    5    2]
 [  12   19  178  145   64   50 4030    8    4    8]
 [  19    6  115  167  130   90   13 3936    1   13]
 [ 233  138   91   50   20   20   19    8 3853   53]
 [  87  519   25   77    4   12   21    7   21 3768]]
 Accuracy: 0.8507555555555556
 Precisions:
[0.88651685 0.84453457 0.72275192 0.70101089 0.85810163 0.82046856
 0.8945616  0.93137719 0.97767064 0.94673367]
 Recalls:
[0.87940259 0.97329179 0.86006674 0.80509042 0.79063604 0.74180602
 0.89198761 0.8766147  0.85908584 0.82977318]

Running evaluation: Validation
 Loss: 0.8942591547966003
 Confusion matrix:
[[371  12  66  19  13   5   2   2  12  12]
 [  4 452   5   8   2   1   2   2   9  22]
 [ 17   6 337  25  32  32  35  15   3   3]
 [  5   5  56 305  22  82  27  13   1   5]
 [  6   8  54  38 299  17  19  29   1   1]
 [  0   4  47 120  23 280  16  18   1   6]
 [  3   4  29  37  16  16 374   3   0   0]
 [  4   2  20  29  31  30   1 382   1  10]
 [ 44  20  16  15   4   6   7   4 384  15]
 [ 13  70   8  18   3   5   5   6   3 328]]
 Accuracy: 0.7024
 Precisions:
[0.79443255 0.77530017 0.52821317 0.49674267 0.67191011 0.5907173
 0.76639344 0.80590717 0.9253012  0.8159204 ]
 Recalls:
[0.72178988 0.89151874 0.66732673 0.58541267 0.63347458 0.54368932
 0.77593361 0.74901961 0.74563107 0.71459695]
epoch: 8, step: 0/900, batch_loss: 0.4512135684490204
epoch: 8, step: 100/900, batch_loss: 0.3234768807888031
epoch: 8, step: 200/900, batch_loss: 0.4114689230918884
epoch: 8, step: 300/900, batch_loss: 0.2561081647872925
epoch: 8, step: 400/900, batch_loss: 0.27706050872802734
epoch: 8, step: 500/900, batch_loss: 0.3627835810184479
epoch: 8, step: 600/900, batch_loss: 0.5017106533050537
epoch: 8, step: 700/900, batch_loss: 0.32132381200790405
epoch: 8, step: 800/900, batch_loss: 0.4353559911251068

Running evaluation: Train
 Loss: 0.3666628897190094
 Confusion matrix:
[[3872    8   76   98   81   21   15   30  200   85]
 [  30 3936    7   34    7    7   15   11  149  297]
 [  75    5 3379  199  382  195  119   79   47   15]
 [  10    2   60 3679  137  407   83   68   17   16]
 [  19    1   50  147 4063   87   58   75   21    7]
 [   3    1   41  454  138 3698   40   96   12    2]
 [   7    3   42  165  102   60 4106    9   15    9]
 [   8    0   19  116  164   81    4 4075   10   13]
 [  43    7    9   26    7    5    4    6 4357   21]
 [  33   42   11   47   10    8   10    8   96 4276]]
 Accuracy: 0.8764666666666666
 Precisions:
[0.94439024 0.98277154 0.91472658 0.74098691 0.79807503 0.80936748
 0.92186798 0.91429212 0.88484972 0.90191943]
 Recalls:
[0.86312974 0.87602938 0.75172414 0.8213887  0.89730565 0.8245262
 0.90880921 0.90757238 0.97146042 0.94164281]

Running evaluation: Validation
 Loss: 0.940543532371521
 Confusion matrix:
[[352   6  30  26  21   5   6   7  44  17]
 [  3 370   7  11   5   1   2   3  36  69]
 [ 21   2 262  32  66  41  46  19  10   6]
 [  5   1  25 309  31  89  26  22   5   8]
 [  7   2  12  30 350  20  18  25   6   2]
 [  2   3  17 105  27 308  13  29   5   6]
 [  3   2  13  37  26  19 374   3   3   2]
 [  2   1  14  23  33  28   1 394   2  12]
 [ 16   6   1  10   4   3   2   3 454  16]
 [  8  17   3  13   7   5   3   7  17 379]]
 Accuracy: 0.7104
 Precisions:
[0.84009547 0.90243902 0.68229167 0.51845638 0.61403509 0.59344894
 0.76171079 0.76953125 0.78006873 0.73307544]
 Recalls:
[0.6848249  0.72978304 0.51881188 0.59309021 0.74152542 0.59805825
 0.77593361 0.77254902 0.8815534  0.82570806]
epoch: 9, step: 0/900, batch_loss: 0.2521967887878418
epoch: 9, step: 100/900, batch_loss: 0.39611542224884033
epoch: 9, step: 200/900, batch_loss: 0.29301148653030396
epoch: 9, step: 300/900, batch_loss: 0.45357269048690796
epoch: 9, step: 400/900, batch_loss: 0.18342843651771545
epoch: 9, step: 500/900, batch_loss: 0.3909377157688141
epoch: 9, step: 600/900, batch_loss: 0.3458194434642792
epoch: 9, step: 700/900, batch_loss: 0.271400511264801
epoch: 9, step: 800/900, batch_loss: 0.42061740159988403

Running evaluation: Train
 Loss: 0.29029223322868347
 Confusion matrix:
[[4128   37   45   31   31    9   33   11   92   69]
 [   7 4368    1    4    2    5   12    2    6   86]
 [  80   12 3743  125  118  103  222   60   14   18]
 [  12   10   81 3599   68  360  231   76    9   33]
 [  20    2   80   97 3822  108  226  152    6   15]
 [   5    6   49  260   56 3927   95   74    4    9]
 [   5    4   18   47   12   19 4396    5    3    9]
 [   7    4   14   62   25   65   28 4269    3   13]
 [  43   47    7   14   11    3   14    7 4287   52]
 [  19  105    8   21    2    4   13    3   19 4347]]
 Accuracy: 0.9085777777777778
 Precisions:
[0.95423024 0.95059848 0.92511122 0.84483568 0.92163009 0.85313926
 0.8341556  0.91629105 0.96488859 0.93463771]
 Recalls:
[0.92019617 0.97217895 0.832703   0.80352757 0.84408127 0.87558528
 0.9729969  0.95077951 0.95585284 0.95727813]

Running evaluation: Validation
 Loss: 0.9295597672462463
 Confusion matrix:
[[373  11  29  20  13   4   9   7  29  19]
 [  3 424   4   5   3   1   3   3  11  50]
 [ 24   7 293  22  35  30  54  26   6   8]
 [  7   4  35 282  21  95  46  22   2   7]
 [  9   3  23  22 303  25  37  44   2   4]
 [  3   5  26  83  23 308  23  35   2   7]
 [  3   3  13  28  10  14 404   5   2   0]
 [  3   1  15  17  19  28   5 404   2  16]
 [ 21  12   1  12   2   2   6   3 434  22]
 [  9  35   2   7   3   6   4   7   3 383]]
 Accuracy: 0.7216
 Precisions:
[0.81978022 0.83960396 0.66439909 0.56626506 0.70138889 0.60038986
 0.68358714 0.72661871 0.88032454 0.74224806]
 Recalls:
[0.72568093 0.83629191 0.58019802 0.54126679 0.64194915 0.59805825
 0.83817427 0.79215686 0.84271845 0.83442266]
epoch: 10, step: 0/900, batch_loss: 0.45514532923698425
epoch: 10, step: 100/900, batch_loss: 0.34244754910469055
epoch: 10, step: 200/900, batch_loss: 0.31681492924690247
epoch: 10, step: 300/900, batch_loss: 0.1614876240491867
epoch: 10, step: 400/900, batch_loss: 0.1683041751384735
epoch: 10, step: 500/900, batch_loss: 0.3833954930305481
epoch: 10, step: 600/900, batch_loss: 0.27057984471321106
epoch: 10, step: 700/900, batch_loss: 0.31879329681396484
epoch: 10, step: 800/900, batch_loss: 0.3584577441215515

Running evaluation: Train
 Loss: 0.22985093295574188
 Confusion matrix:
[[4227   12   13    8   15    4    3    8  171   25]
 [  12 4325    0    2    2    1    6    0   75   70]
 [ 112    3 3960   73  125   63   76   23   49   11]
 [  27    3   54 3813   76  272  132   33   37   32]
 [  18    0   50   59 4239   40   45   41   25   11]
 [  11    3   39  237   97 3965   54   48   23    8]
 [   9    2   27   40   41   14 4356    4   17    8]
 [   8    1   19   41   58   39    8 4293   11   12]
 [  18    8    3    3    1    1    0    3 4437   11]
 [  17   43    4   14    3    0    2    1  113 4344]]
 Accuracy: 0.9324222222222223
 Precisions:
[0.9479704  0.98295455 0.94986807 0.88881119 0.91024265 0.90134121
 0.93037164 0.96385272 0.89491731 0.95851721]
 Recalls:
[0.94226482 0.9626085  0.88097887 0.8513061  0.93617491 0.88405797
 0.96414343 0.95612472 0.98929766 0.95661749]

Running evaluation: Validation
 Loss: 0.9575052857398987
 Confusion matrix:
[[386   8  16  14  14   3   7   6  44  16]
 [  6 395   4   7   3   0   3   3  33  53]
 [ 34   4 295  24  36  27  43  21  12   9]
 [ 15   3  25 277  30  97  39  20   7   8]
 [ 10   5  16  22 348  16  21  24   8   2]
 [  2   1  20  92  25 311  16  33   7   8]
 [  5   2  19  27  19  15 384   4   6   1]
 [  6   1  17  15  32  24   1 394   3  17]
 [ 17  10   1   6   3   2   2   1 464   9]
 [ 14  28   2   8   4   4   6   5  24 364]]
 Accuracy: 0.7236
 Precisions:
[0.77979798 0.8643326  0.71084337 0.56300813 0.6770428  0.62324649
 0.73563218 0.77103718 0.76315789 0.74743326]
 Recalls:
[0.75097276 0.7790927  0.58415842 0.53166987 0.73728814 0.6038835
 0.7966805  0.77254902 0.90097087 0.79302832]
epoch: 11, step: 0/900, batch_loss: 0.3166642487049103
epoch: 11, step: 100/900, batch_loss: 0.15842396020889282
epoch: 11, step: 200/900, batch_loss: 0.22444017231464386
epoch: 11, step: 300/900, batch_loss: 0.24569463729858398
epoch: 11, step: 400/900, batch_loss: 0.14052273333072662
epoch: 11, step: 500/900, batch_loss: 0.29043081402778625
epoch: 11, step: 600/900, batch_loss: 0.23686647415161133
epoch: 11, step: 700/900, batch_loss: 0.2954151928424835
epoch: 11, step: 800/900, batch_loss: 0.18633590638637543

Running evaluation: Train
 Loss: 0.18940219283103943
 Confusion matrix:
[[4263   13   73    6   10    6    6    3   74   32]
 [   3 4436    3    0    1    1    3    0    7   39]
 [  24    0 4352   15   33   28   24    6    8    5]
 [  12    2  164 3775   29  372   78   13    6   28]
 [  10    4  208   53 4052  114   31   37    9   10]
 [   4    2   74   91   26 4239   23   18    5    3]
 [   4    5   80   17   22   35 4349    1    1    4]
 [   5    2   60   36   21   89    7 4262    4    4]
 [  16   15    8    4    1    4    5    1 4417   14]
 [   9   49    9    5    2    2    7    1   14 4443]]
 Accuracy: 0.9464
 Precisions:
[0.98       0.97968198 0.86503677 0.94327836 0.96545151 0.86687117
 0.95940878 0.98157531 0.97183718 0.9696639 ]
 Recalls:
[0.95028979 0.9873136  0.96818687 0.84282206 0.89487633 0.9451505
 0.96259407 0.94922049 0.98483835 0.97841885]

Running evaluation: Validation
 Loss: 0.9919770359992981
 Confusion matrix:
[[366   9  47  13  10   6   7   4  32  20]
 [  5 415   8   9   3   1   3   0  14  49]
 [ 19   5 345  16  25  33  34  16   4   8]
 [ 11   3  56 256  22 113  34  14   3   9]
 [  8   6  45  26 307  26  19  27   6   2]
 [  2   2  41  66  19 341  19  15   2   8]
 [  5   3  27  26  14  24 378   2   2   1]
 [  5   2  27  15  20  39   2 382   3  15]
 [ 21  12   3  11   4   5   4   2 437  16]
 [ 11  35   6   5   2   7   5   5   5 378]]
 Accuracy: 0.721
 Precisions:
[0.80794702 0.84349593 0.57024793 0.5778781  0.72065728 0.57310924
 0.74851485 0.81798715 0.86023622 0.74703557]
 Recalls:
[0.71206226 0.81854043 0.68316832 0.49136276 0.65042373 0.66213592
 0.78423237 0.74901961 0.84854369 0.82352941]
epoch: 12, step: 0/900, batch_loss: 0.25390157103538513
epoch: 12, step: 100/900, batch_loss: 0.2117830216884613
epoch: 12, step: 200/900, batch_loss: 0.22106805443763733
epoch: 12, step: 300/900, batch_loss: 0.1668197065591812
epoch: 12, step: 400/900, batch_loss: 0.19594259560108185
epoch: 12, step: 500/900, batch_loss: 0.2817666232585907
epoch: 12, step: 600/900, batch_loss: 0.11674369126558304
epoch: 12, step: 700/900, batch_loss: 0.14299194514751434
epoch: 12, step: 800/900, batch_loss: 0.179621621966362

Running evaluation: Train
 Loss: 0.13753534853458405
 Confusion matrix:
[[4383    6   21    8    9    4    1    2   32   20]
 [   3 4434    0    1    2    0    4    3   10   36]
 [  27    3 4318   35   61   19    8   16    5    3]
 [   9    1   50 4212   46   80   38   23    5   15]
 [   7    0   37   37 4363   17   20   42    3    2]
 [   6    1   28  174   62 4147   10   51    3    3]
 [   2    3   42   45   31   14 4369    3    7    2]
 [   2    0    8   17   18    5    0 4436    4    0]
 [  24    7    6    5    0    0    0    2 4433    8]
 [   8   26    4    7    3    0    1    0   16 4476]]
 Accuracy: 0.9682444444444445
 Precisions:
[0.9803176  0.98951127 0.95657953 0.927549   0.94951034 0.96756883
 0.98157717 0.96898209 0.98118637 0.98050383]
 Recalls:
[0.97703968 0.98686846 0.96062291 0.94038848 0.96356007 0.92463768
 0.96702081 0.98797327 0.9884058  0.98568597]

Running evaluation: Validation
 Loss: 1.0301474332809448
 Confusion matrix:
[[388   7  28  17  10   7   7   9  27  14]
 [  6 406   4   8   4   2   1   3  19  54]
 [ 27   5 318  29  34  25  31  25   4   7]
 [ 12   2  40 294  32  79  25  24   5   8]
 [ 10   5  27  24 341  11  14  36   3   1]
 [  2   1  30 108  27 291  10  33   5   8]
 [  4   1  27  33  19  18 371   6   1   2]
 [  3   1  19  20  27  18   2 406   2  12]
 [ 24  10   2   9   5   3   3   1 442  16]
 [ 17  28   2   9   4   8   4   7   7 373]]
 Accuracy: 0.726
 Precisions:
[0.78701826 0.87124464 0.63983903 0.53357532 0.67793241 0.62987013
 0.79273504 0.73818182 0.85825243 0.75353535]
 Recalls:
[0.75486381 0.80078895 0.62970297 0.56429942 0.72245763 0.56504854
 0.76970954 0.79607843 0.85825243 0.81263617]
epoch: 13, step: 0/900, batch_loss: 0.18613235652446747
epoch: 13, step: 100/900, batch_loss: 0.18721702694892883
epoch: 13, step: 200/900, batch_loss: 0.14983077347278595
epoch: 13, step: 300/900, batch_loss: 0.0787944421172142
epoch: 13, step: 400/900, batch_loss: 0.1663416028022766
epoch: 13, step: 500/900, batch_loss: 0.15590855479240417
epoch: 13, step: 600/900, batch_loss: 0.26921582221984863
epoch: 13, step: 700/900, batch_loss: 0.09547015279531479
epoch: 13, step: 800/900, batch_loss: 0.17979010939598083

Running evaluation: Train
 Loss: 0.11325079947710037
 Confusion matrix:
[[4420    5   18    3    5    2    1    4   13   15]
 [   1 4459    0    2    0    1    3    1    1   25]
 [  23    2 4298   42   48   42   17   13    4    6]
 [   5    1   21 4266   25  113   21   16    1   10]
 [   6    2   25   43 4333   54   20   43    2    0]
 [   3    0    9   79   22 4343    4   22    2    1]
 [   6    1   18   39    8   11 4430    3    0    2]
 [   2    0    5   13    9    8    1 4451    1    0]
 [  26    7    6    3    0    0    0    4 4423   16]
 [   4   18    3    4    1    0    1    1    7 4502]]
 Accuracy: 0.9761111111111112
 Precisions:
[0.98309609 0.9919911  0.97615262 0.94926569 0.9734891  0.94949716
 0.98488217 0.97652479 0.99303996 0.98361372]
 Recalls:
[0.98528756 0.99243267 0.95617353 0.95244474 0.95693463 0.96833891
 0.98052236 0.99131403 0.98617614 0.99141158]

Running evaluation: Validation
 Loss: 1.075494408607483
 Confusion matrix:
[[384   9  32  12   8   7   6  10  26  20]
 [  5 412   5   9   4   2   1   3  10  56]
 [ 25   5 304  30  33  36  35  26   5   6]
 [ 13   4  33 292  22  97  26  23   2   9]
 [ 10   6  26  30 324  20  13  38   3   2]
 [  2   1  19  97  22 326  12  26   2   8]
 [  5   2  15  35  16  21 378   5   2   3]
 [  3   1  15  18  26  28   2 402   2  13]
 [ 27  13   2  11   5   3   4   3 428  19]
 [ 17  26   2   7   3   9   5   7   5 378]]
 Accuracy: 0.7256
 Precisions:
[0.78207739 0.86012526 0.67108168 0.53974122 0.69978402 0.59380692
 0.78423237 0.74033149 0.88247423 0.73540856]
 Recalls:
[0.74708171 0.81262327 0.6019802  0.56046065 0.68644068 0.63300971
 0.78423237 0.78823529 0.83106796 0.82352941]
epoch: 14, step: 0/900, batch_loss: 0.19314029812812805
epoch: 14, step: 100/900, batch_loss: 0.19973596930503845
epoch: 14, step: 200/900, batch_loss: 0.12841378152370453
epoch: 14, step: 300/900, batch_loss: 0.15672078728675842
epoch: 14, step: 400/900, batch_loss: 0.1348770707845688
epoch: 14, step: 500/900, batch_loss: 0.1663374900817871
epoch: 14, step: 600/900, batch_loss: 0.11930692940950394
epoch: 14, step: 700/900, batch_loss: 0.13760121166706085
epoch: 14, step: 800/900, batch_loss: 0.18761076033115387

Running evaluation: Train
 Loss: 0.09200996905565262
 Confusion matrix:
[[4410    6   17    7   15    1    2    2   15   11]
 [   0 4473    0    0    1    0    2    1    1   15]
 [  12    0 4373   29   45   18   15    1    1    1]
 [   2    0   11 4343   24   56   33    3    3    4]
 [   2    0   11   24 4451   17   13    9    1    0]
 [   2    0    7   74   23 4360    8   10    0    1]
 [   1    0    8   15    4    4 4486    0    0    0]
 [   1    0    6   12    9   13    0 4449    0    0]
 [  10    5    3    4    3    1    1    3 4449    6]
 [   2   13    2    4    2    0    3    0    6 4509]]
 Accuracy: 0.9845111111111111
 Precisions:
[0.99279604 0.99466311 0.98535376 0.96254433 0.97247105 0.9753915
 0.98312514 0.99352389 0.99396783 0.99164284]
 Recalls:
[0.9830584  0.99554863 0.97285873 0.96963608 0.9829947  0.97212932
 0.99291722 0.9908686  0.99197324 0.99295309]

Running evaluation: Validation
 Loss: 1.1168851852416992
 Confusion matrix:
[[371   9  31  18  12   9   7  10  29  18]
 [  4 417   4   9   4   2   2   3  13  49]
 [ 22   5 303  35  34  36  40  20   5   5]
 [  8   2  35 300  26  86  35  19   3   7]
 [  6   3  24  24 350  17  18  25   3   2]
 [  2   1  24 109  26 309  12  24   2   6]
 [  3   1  16  34  15  21 386   3   1   2]
 [  3   1  20  21  34  24   3 393   1  10]
 [ 22  14   2  11   6   5   6   2 432  15]
 [ 13  30   5  11   4   8   5   7   5 371]]
 Accuracy: 0.7264
 Precisions:
[0.81718062 0.86335404 0.65301724 0.52447552 0.68493151 0.59767892
 0.75097276 0.77667984 0.87449393 0.76494845]
 Recalls:
[0.72178988 0.82248521 0.6        0.57581574 0.74152542 0.6
 0.80082988 0.77058824 0.83883495 0.80827887]
epoch: 15, step: 0/900, batch_loss: 0.08991879224777222
epoch: 15, step: 100/900, batch_loss: 0.054910432547330856
epoch: 15, step: 200/900, batch_loss: 0.07662630826234818
epoch: 15, step: 300/900, batch_loss: 0.07134875655174255
epoch: 15, step: 400/900, batch_loss: 0.18066033720970154
epoch: 15, step: 500/900, batch_loss: 0.19698573648929596
epoch: 15, step: 600/900, batch_loss: 0.0483173169195652
epoch: 15, step: 700/900, batch_loss: 0.10199519246816635
epoch: 15, step: 800/900, batch_loss: 0.10766557604074478

Running evaluation: Train
 Loss: 0.0787586197257042
 Confusion matrix:
[[4450    2   12    2    1    0    1    0    6   12]
 [   0 4456    0    0    0    1    2    0    1   33]
 [  17    0 4424   10   22   10    7    2    1    2]
 [   6    0   31 4325   13   60   31    0    1   12]
 [   8    0   18   15 4445   19   11    9    1    2]
 [   3    0   12   30   15 4414    3    7    0    1]
 [   1    0   10    7    3    3 4494    0    0    0]
 [   1    0    5    6    6    8    0 4464    0    0]
 [  18    1    5    1    0    0    1    1 4440   18]
 [   2    2    2    1    1    0    2    0    3 4528]]
 Accuracy: 0.9875555555555555
 Precisions:
[0.98757213 0.99887918 0.97897765 0.9836252  0.98646249 0.97763012
 0.98725835 0.99576177 0.99708062 0.98263889]
 Recalls:
[0.99197503 0.99176497 0.98420467 0.96561733 0.98166961 0.98416945
 0.99468792 0.99420935 0.98996656 0.99713719]

Running evaluation: Validation
 Loss: 1.1610769033432007
 Confusion matrix:
[[388   7  36  11  10   5   7   7  22  21]
 [  7 391   5   6   3   2   4   3  14  72]
 [ 27   4 320  23  29  36  37  18   4   7]
 [ 13   3  46 275  25  95  33  18   2  11]
 [  9   3  34  23 337  17  19  24   3   3]
 [  3   1  31  93  20 322  14  21   3   7]
 [  3   0  21  29  13  18 389   6   2   1]
 [  5   1  22  18  30  30   3 387   2  12]
 [ 32  10   2   8   5   4   5   2 425  22]
 [ 18  18   3   7   4   7   5   6   4 387]]
 Accuracy: 0.7242
 Precisions:
[0.76831683 0.89269406 0.61538462 0.55780933 0.70798319 0.60074627
 0.75387597 0.78658537 0.88357588 0.71270718]
 Recalls:
[0.75486381 0.77120316 0.63366337 0.52783109 0.71398305 0.62524272
 0.80705394 0.75882353 0.82524272 0.84313725]
epoch: 16, step: 0/900, batch_loss: 0.051154907792806625
epoch: 16, step: 100/900, batch_loss: 0.08737724274396896
epoch: 16, step: 200/900, batch_loss: 0.12061084061861038
epoch: 16, step: 300/900, batch_loss: 0.1072641909122467
epoch: 16, step: 400/900, batch_loss: 0.0503382682800293
epoch: 16, step: 500/900, batch_loss: 0.07254300266504288
epoch: 16, step: 600/900, batch_loss: 0.2696411907672882
epoch: 16, step: 700/900, batch_loss: 0.08291497081518173
epoch: 16, step: 800/900, batch_loss: 0.1303536295890808

Running evaluation: Train
 Loss: 0.06571256369352341
 Confusion matrix:
[[4464    1    4    2    3    1    1    0    8    2]
 [   0 4483    0    1    0    0    2    0    2    5]
 [  18    1 4390   10   51    8   13    1    2    1]
 [   4    0    6 4384   26   31   24    1    2    1]
 [   4    0    4    9 4495    3    6    6    1    0]
 [   3    0    2   30   22 4416    6    4    1    1]
 [   1    0    2    4    7    2 4502    0    0    0]
 [   1    0    2    5   12    2    0 4468    0    0]
 [  11    0    0    2    2    1    0    0 4466    3]
 [   3    5    0    2    2    0    2    0    5 4522]]
 Accuracy: 0.9908888888888889
 Precisions:
[0.99001996 0.99844098 0.99546485 0.98538998 0.97294372 0.98924731
 0.9881475  0.99732143 0.99531981 0.99713341]
 Recalls:
[0.99509585 0.99777432 0.97664071 0.97878991 0.99271201 0.98461538
 0.99645861 0.99510022 0.99576366 0.9958159 ]

Running evaluation: Validation
 Loss: 1.1889044046401978
 Confusion matrix:
[[385   8  29  12  13   7   7  10  29  14]
 [ 10 409   3   8   5   0   1   3  14  54]
 [ 26   5 300  25  46  30  41  21   5   6]
 [ 13   3  35 283  37  86  32  20   5   7]
 [ 10   5  19  21 361  13  15  23   4   1]
 [  2   1  25  95  31 312  15  22   5   7]
 [  4   0  14  33  24  18 380   5   3   1]
 [  5   1  16  20  37  21   3 394   2  11]
 [ 22   9   1   8   5   3   4   2 447  14]
 [ 17  26   3   9   5   7   5   7   5 375]]
 Accuracy: 0.7292
 Precisions:
[0.77935223 0.875803   0.6741573  0.55058366 0.64007092 0.6277666
 0.7554672  0.77712032 0.86127168 0.76530612]
 Recalls:
[0.74902724 0.80670611 0.59405941 0.54318618 0.76483051 0.60582524
 0.78838174 0.77254902 0.86796117 0.81699346]
epoch: 17, step: 0/900, batch_loss: 0.06347733736038208
epoch: 17, step: 100/900, batch_loss: 0.03984595462679863
epoch: 17, step: 200/900, batch_loss: 0.05817890167236328
epoch: 17, step: 300/900, batch_loss: 0.057379379868507385
epoch: 17, step: 400/900, batch_loss: 0.05597437545657158
epoch: 17, step: 500/900, batch_loss: 0.06098324805498123
epoch: 17, step: 600/900, batch_loss: 0.08090715110301971
epoch: 17, step: 700/900, batch_loss: 0.052031926810741425
epoch: 17, step: 800/900, batch_loss: 0.07176998257637024

Running evaluation: Train
 Loss: 0.058839257806539536
 Confusion matrix:
[[4467    0    7    2    1    1    0    0    6    2]
 [   0 4485    0    1    0    0    1    1    2    3]
 [  11    0 4451    3   22    3    2    1    1    1]
 [   4    0   14 4410   16   21    7    3    2    2]
 [   5    0    6    6 4493    3    2   11    2    0]
 [   2    0    6   25   24 4417    3    7    1    0]
 [   2    0    7    4   11    2 4492    0    0    0]
 [   1    0    2    6    4    0    0 4477    0    0]
 [  14    0    1    1    0    1    1    1 4466    0]
 [   2    7    0    1    1    0    1    0    6 4523]]
 Accuracy: 0.9929111111111111
 Precisions:
[0.99090506 0.99844167 0.99043169 0.98901099 0.98272091 0.99303058
 0.99622976 0.99466785 0.99554169 0.99823439]
 Recalls:
[0.9957646  0.99821945 0.99021135 0.98459478 0.99227032 0.98483835
 0.99424524 0.99710468 0.99576366 0.99603612]

Running evaluation: Validation
 Loss: 1.2127645015716553
 Confusion matrix:
[[395   8  30  12   9   4   6  12  27  11]
 [ 10 412   5   8   3   1   1   3  16  48]
 [ 27   3 318  25  39  27  31  23   6   6]
 [ 16   3  42 288  30  81  26  24   4   7]
 [ 10   5  26  24 343  13  13  34   3   1]
 [  4   1  29  96  24 305  12  32   4   8]
 [  4   2  22  33  22  17 370   8   3   1]
 [  5   1  17  21  31  19   3 401   2  10]
 [ 29  10   1  12   6   3   3   2 437  12]
 [ 21  28   5   8   5   6   5   9   7 365]]
 Accuracy: 0.7268
 Precisions:
[0.75815739 0.87103594 0.64242424 0.54648956 0.66992188 0.6407563
 0.78723404 0.73175182 0.85854617 0.7782516 ]
 Recalls:
[0.76848249 0.81262327 0.62970297 0.55278311 0.72669492 0.59223301
 0.76763485 0.78627451 0.84854369 0.79520697]
epoch: 18, step: 0/900, batch_loss: 0.09230706095695496
epoch: 18, step: 100/900, batch_loss: 0.07295442372560501
epoch: 18, step: 200/900, batch_loss: 0.05546288564801216
epoch: 18, step: 300/900, batch_loss: 0.04488080367445946
epoch: 18, step: 400/900, batch_loss: 0.05692675709724426
epoch: 18, step: 500/900, batch_loss: 0.0564350001513958
epoch: 18, step: 600/900, batch_loss: 0.06972448527812958
epoch: 18, step: 700/900, batch_loss: 0.12801910936832428
epoch: 18, step: 800/900, batch_loss: 0.05328894034028053

Running evaluation: Train
 Loss: 0.05134323611855507
 Confusion matrix:
[[4460    2    5    2    0    0    1    0   14    2]
 [   1 4488    0    0    0    0    1    0    2    1]
 [  10    0 4459    3   13    2    5    0    1    2]
 [   1    0    9 4430    8   13   10    0    2    6]
 [   4    0    6    5 4500    5    3    3    2    0]
 [   1    0    3   21   10 4442    3    4    1    0]
 [   0    0    3    4    3    2 4505    0    1    0]
 [   1    0    3    6    3    1    0 4475    1    0]
 [   5    0    1    1    0    0    1    0 4477    0]
 [   0    4    0    0    1    0    1    0    6 4529]]
 Accuracy: 0.9947777777777778
 Precisions:
[0.99486951 0.99866489 0.993317   0.99060823 0.99162627 0.99484882
 0.99448124 0.9984382  0.99334369 0.99757709]
 Recalls:
[0.99420419 0.99888716 0.9919911  0.98906006 0.99381625 0.99041249
 0.99712262 0.99665924 0.99821628 0.99735741]

Running evaluation: Validation
 Loss: 1.2311376333236694
 Confusion matrix:
[[381   8  36  12  10   5   6  10  32  14]
 [  9 411   3   7   4   1   1   2  17  52]
 [ 24   4 323  28  29  31  37  17   5   7]
 [ 15   3  42 283  28  87  32  20   3   8]
 [  8   5  30  24 338  15  15  29   5   3]
 [  3   1  27 102  21 312  14  23   5   7]
 [  4   0  20  34  16  19 380   5   3   1]
 [  4   1  21  21  31  23   3 393   2  11]
 [ 20  10   1   9   5   1   5   2 449  13]
 [ 18  25   5   7   4   8   5   7   9 371]]
 Accuracy: 0.7282
 Precisions:
[0.78395062 0.87820513 0.63582677 0.5370019  0.69547325 0.62151394
 0.76305221 0.77362205 0.84716981 0.76180698]
 Recalls:
[0.74124514 0.81065089 0.63960396 0.54318618 0.71610169 0.60582524
 0.78838174 0.77058824 0.87184466 0.80827887]
epoch: 19, step: 0/900, batch_loss: 0.04680010676383972
epoch: 19, step: 100/900, batch_loss: 0.055615395307540894
epoch: 19, step: 200/900, batch_loss: 0.01983286254107952
epoch: 19, step: 300/900, batch_loss: 0.030611123889684677
epoch: 19, step: 400/900, batch_loss: 0.044802937656641006
epoch: 19, step: 500/900, batch_loss: 0.1281297355890274
epoch: 19, step: 600/900, batch_loss: 0.032314036041498184
epoch: 19, step: 700/900, batch_loss: 0.046835098415613174
epoch: 19, step: 800/900, batch_loss: 0.046433910727500916

Running evaluation: Train
 Loss: 0.04867822304368019
 Confusion matrix:
[[4475    0    7    1    1    0    0    0    1    1]
 [   0 4489    0    0    0    0    1    0    2    1]
 [   8    0 4463    1   16    1    3    1    1    1]
 [   1    0    9 4435   11    4   15    1    3    0]
 [   3    0    3    2 4508    3    4    5    0    0]
 [   1    0    6   22   17 4429    4    6    0    0]
 [   1    0    6    2    3    1 4505    0    0    0]
 [   1    0    3    2    3    0    0 4481    0    0]
 [   8    0    0    1    1    0    0    0 4475    0]
 [   2    2    0    0    1    0    1    0    5 4530]]
 Accuracy: 0.9953333333333333
 Precisions:
[0.99444444 0.99955466 0.9924394  0.99305867 0.98837974 0.99797206
 0.99382308 0.99710725 0.99732561 0.99933819]
 Recalls:
[0.99754793 0.99910973 0.99288098 0.99017638 0.99558304 0.98751394
 0.99712262 0.99799555 0.99777035 0.99757763]

Running evaluation: Validation
 Loss: 1.2640432119369507
 Confusion matrix:
[[385   8  34  11  11   3   6  13  30  13]
 [  9 411   4   8   4   0   2   2  16  51]
 [ 25   3 324  22  39  22  38  21   5   6]
 [ 16   4  40 276  35  83  32  21   5   9]
 [ 10   4  29  22 348  11  15  30   3   0]
 [  3   2  31  97  31 291  19  28   5   8]
 [  5   0  20  29  22  16 380   6   3   1]
 [  6   1  18  21  36  18   3 397   2   8]
 [ 25   9   1   9   6   1   6   2 444  12]
 [ 20  27   5   8   6   6   5   8   8 366]]
 Accuracy: 0.7244
 Precisions:
[0.76388889 0.87633262 0.64031621 0.54870775 0.64684015 0.64523282
 0.75098814 0.75189394 0.85220729 0.7721519 ]
 Recalls:
[0.74902724 0.81065089 0.64158416 0.52975048 0.73728814 0.56504854
 0.78838174 0.77843137 0.86213592 0.79738562]
epoch: 20, step: 0/900, batch_loss: 0.0507206954061985
epoch: 20, step: 100/900, batch_loss: 0.04044380784034729
epoch: 20, step: 200/900, batch_loss: 0.01755540631711483
epoch: 20, step: 300/900, batch_loss: 0.03219147026538849
epoch: 20, step: 400/900, batch_loss: 0.039361320436000824
epoch: 20, step: 500/900, batch_loss: 0.05243602767586708
epoch: 20, step: 600/900, batch_loss: 0.04551585763692856
epoch: 20, step: 700/900, batch_loss: 0.05611345171928406
epoch: 20, step: 800/900, batch_loss: 0.06310422718524933

Running evaluation: Train
 Loss: 0.043665748089551926
 Confusion matrix:
[[4474    0    6    1    1    0    0    0    2    2]
 [   0 4488    0    0    0    0    0    1    1    3]
 [   3    0 4475    2   10    2    0    0    1    2]
 [   1    0    8 4439    4   14   10    1    1    1]
 [   1    0    4    2 4511    3    3    4    0    0]
 [   1    0    3   12    9 4455    3    2    0    0]
 [   0    0    5    2    2    1 4508    0    0    0]
 [   1    0    2    5    1    1    0 4480    0    0]
 [   6    0    1    0    0    0    0    0 4478    0]
 [   0    2    0    0    1    0    1    0    1 4536]]
 Accuracy: 0.9965333333333334
 Precisions:
[0.99710274 0.99955457 0.99356128 0.99462245 0.99383124 0.99530831
 0.99624309 0.99821747 0.99866191 0.99823944]
 Recalls:
[0.99732501 0.99888716 0.99555061 0.99106944 0.99624558 0.99331104
 0.99778663 0.99777283 0.99843924 0.99889892]

Running evaluation: Validation
 Loss: 1.2701115608215332
 Confusion matrix:
[[382   8  34  12  10   4   6  13  30  15]
 [  6 418   5   7   4   0   1   3  14  49]
 [ 24   5 322  25  32  29  35  21   5   7]
 [ 15   4  38 276  30  95  30  20   4   9]
 [  9   5  30  24 340  16  14  28   3   3]
 [  2   1  27  91  26 317  13  25   6   7]
 [  4   0  21  31  21  18 376   6   3   2]
 [  5   1  18  20  32  24   3 393   2  12]
 [ 23  11   1   8   5   3   4   2 444  14]
 [ 18  28   4   7   5   8   5   8   6 370]]
 Accuracy: 0.7276
 Precisions:
[0.78278689 0.86902287 0.644      0.5508982  0.67326733 0.61673152
 0.77207392 0.75722543 0.85880077 0.75819672]
 Recalls:
[0.74319066 0.82445759 0.63762376 0.52975048 0.72033898 0.61553398
 0.78008299 0.77058824 0.86213592 0.80610022]
Plotting in:  lab2/out/training_plot.png

Running evaluation: Test
 Loss: 1.283623218536377
 Confusion matrix:
[[762  15  45  26  32   7  14  10  54  35]
 [ 13 830   8  11   3   8  10   6  29  82]
 [ 69   6 617  64  81  61  48  34  12   8]
 [ 19   9  83 523  60 189  50  37  12  18]
 [ 22   5  91  51 666  36  51  66  10   2]
 [  9   2  59 168  50 634  24  39   8   7]
 [  9   6  42  70  45  27 779   6   8   8]
 [  8   0  27  29  48  71   8 790   3  16]
 [ 60  30  17  16  13   4   7   3 829  21]
 [ 41  66  10  12   7  10   8  21  24 801]]
 Accuracy: 0.7231
 Precisions:
[0.75296443 0.85655315 0.61761762 0.53917526 0.66268657 0.60553964
 0.77977978 0.78063241 0.83822042 0.80260521]
 Recalls:
[0.762 0.83  0.617 0.523 0.666 0.634 0.779 0.79  0.829 0.801]
